,Analysis,Quota,Total Files,date,expiring
32,VVsemileptonic,93625.27335935,23104,2024-07-13,602
26,HLRS_solarb,52461.207565881,14143,2024-07-13,0
13,HBSM_tautau,14109.247214935,50031,2024-07-13,0
25,HLRS_lily,11676.857304333,10282,2024-07-13,0
24,HLRS_ZdZd,11083.232297528,261,2024-07-13,0
9,HBSM_H+WH,11046.914460691,87,2024-07-13,0
18,HH_bbll,10267.080590879,3009,2024-07-13,0
19,HH_bbtautau,9396.746756924,134616,2024-07-13,0
23,HLRS_ZH_Dy,9318.261643924,3501,2024-07-13,0
11,HBSM_Hptaunu,9049.458356017,21470,2024-07-13,0
15,HH_ML,6499.408572832,4297,2024-07-13,0
33,YXH,6078.070657954,11495,2024-07-13,0
21,HLRS_4tau,4586.354931031,42,2024-07-13,0
29,HLRS_ttXuu,4555.749152345,3412,2024-07-13,0
5,DBL_GHH,3924.031611864,5287,2024-07-13,0
12,HBSM_bHbbb,3369.141050435,370,2024-07-13,0
16,HH_bbVV,2209.156126837,3543,2024-07-13,0
35,unknown,1989.562666899,7090,2024-07-13,0
4,DBL_ADJJ,1945.923167468,438,2024-07-13,0
31,VVJJ,1576.878312515,651,2024-07-13,0
8,HBSM_AHtautau,1194.377830752,670,2024-07-13,0
34,ZdZd_2l2j,359.084192828,1,2024-07-13,0
0,??_Inv,329.596431872,9994,2024-07-13,0
2,??_run2,145.596994738,320,2024-07-13,0
30,HLRS_ttabb,100.692584607,72,2024-07-13,0
28,HLRS_ttXtautau,0.0,0,2024-07-13,0
3,AZH,0.0,0,2024-07-13,0
1,??_nodescription,0.0,0,2024-07-13,0
17,HH_bbbb,0.0,0,2024-07-13,0
6,DBL_ssWWWZ,0.0,9,2024-07-13,0
7,DJR,0.0,0,2024-07-13,0
10,HBSM_HppWW,0.0,2,2024-07-13,0
22,HLRS_Haayytautau,0.0,0,2024-07-13,0
14,HBSM_tbH_tautau,0.0,0,2024-07-13,0
20,HH_bbyy,0.0,3,2024-07-13,0
27,HLRS_solart,0.0,0,2024-07-13,0
