,Analysis,Quota,Total Files,date,expiring
31,VVsemileptonic,70383.526641541,31517,2024-05-01,9022
25,HLRS_solarb,50883.307845377,13821,2024-05-01,0
12,HBSM_tautau,14109.247214935,50031,2024-05-01,0
24,HLRS_lily,11676.857304333,10282,2024-05-01,0
23,HLRS_ZdZd,11083.232297528,261,2024-05-01,0
8,HBSM_H+WH,11046.914460691,87,2024-05-01,0
17,HH_bbll,10267.080590879,3009,2024-05-01,0
18,HH_bbtautau,9396.746756924,134616,2024-05-01,0
22,HLRS_ZH_Dy,9318.261643924,3501,2024-05-01,0
10,HBSM_Hptaunu,9049.458356017,21470,2024-05-01,0
14,HH_ML,6499.408572832,4297,2024-05-01,0
32,YXH,6078.070657954,11495,2024-05-01,0
20,HLRS_4tau,4586.354931031,42,2024-05-01,0
28,HLRS_ttXuu,4555.870431102,3413,2024-05-01,0
4,DBL_GHH,3924.031611864,5287,2024-05-01,0
11,HBSM_bHbbb,2462.369286963,291,2024-05-01,0
30,VVJJ,2390.191691286,1220,2024-05-01,63
15,HH_bbVV,2209.156126837,3543,2024-05-01,0
34,unknown,2007.418257122,6384,2024-05-01,3
7,HBSM_AHtautau,910.678666511,500,2024-05-01,0
33,ZdZd_2l2j,359.084192828,1,2024-05-01,0
0,??_Inv,329.596431872,9994,2024-05-01,0
21,HLRS_Haayytautau,153.837925577,20,2024-05-01,0
2,??_run2,145.596994738,320,2024-05-01,0
29,HLRS_ttabb,100.692584607,72,2024-05-01,0
19,HH_bbyy,0.0,3,2024-05-01,0
1,??_nodescription,0.0,0,2024-05-01,0
16,HH_bbbb,0.0,0,2024-05-01,0
13,HBSM_tbH_tautau,0.0,0,2024-05-01,0
9,HBSM_HppWW,0.0,2,2024-05-01,0
26,HLRS_solart,0.0,0,2024-05-01,0
27,HLRS_ttXtautau,0.0,0,2024-05-01,0
6,DJR,0.0,0,2024-05-01,0
5,DBL_ssWWWZ,0.0,9,2024-05-01,0
3,AZH,0.0,0,2024-05-01,0
