,Analysis,Quota,Total Files,date,expiring
27,VVsemileptonic,58692.473976441,15965,2023-09-21,0
22,HLRS_solarb,32178.276316984,6036,2023-09-21,0
11,HBSM_tautau,14109.247214935,50031,2023-09-21,0
21,HLRS_lily,11676.857304333,10282,2023-09-21,0
30,unknown,11519.753594553,6503,2023-09-21,0
20,HLRS_ZdZd,11083.232297528,261,2023-09-21,0
15,HH_bbll,10267.080590879,3009,2023-09-21,0
16,HH_bbtautau,9394.316338354,134258,2023-09-21,276
19,HLRS_ZH_Dy,9317.472593587,3498,2023-09-21,0
9,HBSM_Hptaunu,8702.632728319,20929,2023-09-21,0
28,YXH,6078.070657954,11495,2023-09-21,0
12,HH_ML,5541.106896404,3839,2023-09-21,0
5,DBL_ssWWWZ,4728.895639124,796,2023-09-21,0
25,HLRS_ttXuu,4555.870431102,3413,2023-09-21,0
10,HBSM_bHbbb,4523.614462645,1145,2023-09-21,0
18,HLRS_4tau,4439.304890784,41,2023-09-21,0
4,DBL_GHH,3924.031611864,5287,2023-09-21,0
13,HH_bbVV,2858.091394675,3698,2023-09-21,117
7,HBSM_H+WH,1611.908239145,25,2023-09-21,0
29,ZdZd_2l2j,359.084192828,1,2023-09-21,0
0,??_Inv,329.596431872,9994,2023-09-21,0
2,??_run2,145.596994738,320,2023-09-21,0
26,VVJJ,6.207596889,10,2023-09-21,0
8,HBSM_HppWW,0.0,2,2023-09-21,0
17,HH_bbyy,0.0,3,2023-09-21,0
1,??_nodescription,0.0,0,2023-09-21,0
3,AZH,0.0,0,2023-09-21,0
23,HLRS_solart,0.0,0,2023-09-21,0
24,HLRS_ttXtautau,0.0,0,2023-09-21,0
14,HH_bbbb,0.0,0,2023-09-21,0
6,DJR,0.0,0,2023-09-21,0
