,Analysis,Quota,Total Files,date,expiring
21,HLRS_solarb,35502.696879806,5237,2022-09-28,0
12,HH_bbVV,20239.344870264,9301,2022-09-28,3
10,HBSM_tautau,14077.17176492,49771,2022-09-28,0
20,HLRS_lily,11676.857304333,10282,2022-09-28,0
19,HLRS_ZdZd,10995.572497397,114,2022-09-28,0
4,DBL_GHH,10931.628945664,15698,2022-09-28,0
26,VVsemileptonic,10776.526150911,21799,2022-09-28,0
18,HLRS_ZH_Dy,9317.468465773,3495,2022-09-28,0
15,HH_bbtautau,9212.989251546,122685,2022-09-28,0
14,HH_bbll,7512.448030192,2817,2022-09-28,0
8,HBSM_Hptaunu,6041.708949011,20017,2022-09-28,0
11,HH_ML,5553.363298806,3840,2022-09-28,0
24,HLRS_ttXuu,4555.749152345,3412,2022-09-28,0
27,YXH,4542.684938541,11292,2022-09-28,0
17,HLRS_4tau,4439.304890784,41,2022-09-28,0
28,unknown,2928.901579361,4873,2022-09-28,0
6,HBSM_H+WH,1611.908239145,25,2022-09-28,0
5,DJR,371.686073461,964,2022-09-28,117
0,??_Inv,285.978892297,17056,2022-09-28,0
16,HH_bbyy,0.0,3,2022-09-28,0
1,??_nodescription,0.0,0,2022-09-28,0
13,HH_bbbb,0.0,0,2022-09-28,0
9,HBSM_bHbbb,0.0,0,2022-09-28,0
7,HBSM_HppWW,0.0,2,2022-09-28,0
22,HLRS_solart,0.0,0,2022-09-28,0
23,HLRS_ttXtautau,0.0,0,2022-09-28,0
25,VVJJ,0.0,1,2022-09-28,0
3,AZH,0.0,0,2022-09-28,0
2,??_run2,0.0,0,2022-09-28,0
