,Analysis,Quota,Total Files,date,expiring
12,HH_bbVV,51402.6200707,12977,2023-02-09,0
21,HLRS_solarb,36814.1674219,6194,2023-02-09,0
10,HBSM_tautau,14109.2472149,50031,2023-02-09,0
20,HLRS_lily,11676.8573043,10282,2023-02-09,0
26,VVsemileptonic,11564.4973974,22742,2023-02-09,0
19,HLRS_ZdZd,11054.0269462,117,2023-02-09,0
4,DBL_GHH,10931.6289457,15698,2023-02-09,0
14,HH_bbll,10267.0805909,3009,2023-02-09,0
15,HH_bbtautau,10108.763821,127874,2023-02-09,0
18,HLRS_ZH_Dy,9317.46846577,3495,2023-02-09,0
8,HBSM_Hptaunu,8702.63272832,20929,2023-02-09,0
11,HH_ML,5553.36329881,3840,2023-02-09,0
25,VVJJ,5133.18472413,1283,2023-02-09,0
24,HLRS_ttXuu,4555.8704311,3413,2023-02-09,0
27,YXH,4542.68493854,11292,2023-02-09,1
17,HLRS_4tau,4439.30489078,41,2023-02-09,0
28,unknown,2950.72752177,4836,2023-02-09,0
6,HBSM_H+WH,1611.90823914,25,2023-02-09,0
0,??_Inv,285.978892297,17056,2023-02-09,0
16,HH_bbyy,0.0,3,2023-02-09,0
1,??_nodescription,0.0,0,2023-02-09,0
13,HH_bbbb,0.0,0,2023-02-09,0
9,HBSM_bHbbb,0.0,0,2023-02-09,0
7,HBSM_HppWW,0.0,2,2023-02-09,0
22,HLRS_solart,0.0,0,2023-02-09,0
23,HLRS_ttXtautau,0.0,0,2023-02-09,0
5,DJR,0.0,0,2023-02-09,0
3,AZH,0.0,0,2023-02-09,0
2,??_run2,0.0,0,2023-02-09,0
