,Analysis,Quota,Total Files,date,expiring
30,VVsemileptonic,67758.590084222,53821,2024-01-09,0
24,HLRS_solarb,50648.228647577,13553,2024-01-09,0
11,HBSM_tautau,14109.247214935,50031,2024-01-09,0
23,HLRS_lily,11676.857304333,10282,2024-01-09,0
22,HLRS_ZdZd,11083.232297528,261,2024-01-09,0
7,HBSM_H+WH,11046.914460691,87,2024-01-09,0
16,HH_bbll,10267.080590879,3009,2024-01-09,0
17,HH_bbtautau,9394.514583441,134284,2024-01-09,0
21,HLRS_ZH_Dy,9318.261643924,3501,2024-01-09,0
9,HBSM_Hptaunu,8973.66040215,21374,2024-01-09,0
31,YXH,6078.070657954,11495,2024-01-09,0
13,HH_ML,5576.473544386,4051,2024-01-09,0
5,DBL_ssWWWZ,4728.895639124,796,2024-01-09,0
19,HLRS_4tau,4586.354931031,42,2024-01-09,0
27,HLRS_ttXuu,4555.870431102,3413,2024-01-09,0
10,HBSM_bHbbb,4523.614462645,1145,2024-01-09,0
4,DBL_GHH,3924.031611864,5287,2024-01-09,0
29,VVJJ,3649.231684043,1431,2024-01-09,0
14,HH_bbVV,2209.156126837,3543,2024-01-09,0
33,unknown,1986.331038671,6368,2024-01-09,1
32,ZdZd_2l2j,359.084192828,1,2024-01-09,0
0,??_Inv,329.596431872,9994,2024-01-09,0
20,HLRS_Haayytautau,153.837925577,20,2024-01-09,0
2,??_run2,145.596994738,320,2024-01-09,0
28,HLRS_ttabb,100.692584607,72,2024-01-09,0
1,??_nodescription,67.240804113,4231,2024-01-09,0
18,HH_bbyy,0.0,3,2024-01-09,0
15,HH_bbbb,0.0,0,2024-01-09,0
12,HBSM_tbH_tautau,0.0,0,2024-01-09,0
25,HLRS_solart,0.0,0,2024-01-09,0
26,HLRS_ttXtautau,0.0,0,2024-01-09,0
8,HBSM_HppWW,0.0,2,2024-01-09,0
6,DJR,0.0,0,2024-01-09,0
3,AZH,0.0,0,2024-01-09,0
