,Analysis,Quota,Total Files,date,expiring
29,VVsemileptonic,65663.088823826,17688,2023-11-13,0
23,HLRS_solarb,34271.715692069,8332,2023-11-13,0
11,HBSM_tautau,14109.247214935,50031,2023-11-13,0
22,HLRS_lily,11676.857304333,10282,2023-11-13,0
21,HLRS_ZdZd,11083.232297528,261,2023-11-13,0
7,HBSM_H+WH,11046.914460691,87,2023-11-13,0
16,HH_bbll,10267.080590879,3009,2023-11-13,0
17,HH_bbtautau,9394.316338354,134258,2023-11-13,0
20,HLRS_ZH_Dy,9318.261643924,3501,2023-11-13,0
9,HBSM_Hptaunu,8915.21370208,21302,2023-11-13,0
30,YXH,6078.070657954,11495,2023-11-13,0
13,HH_ML,5576.473544386,4051,2023-11-13,0
5,DBL_ssWWWZ,4728.895639124,796,2023-11-13,0
19,HLRS_4tau,4586.354931031,42,2023-11-13,0
26,HLRS_ttXuu,4555.870431102,3413,2023-11-13,0
10,HBSM_bHbbb,4523.404705774,1144,2023-11-13,0
4,DBL_GHH,3924.031611864,5287,2023-11-13,0
28,VVJJ,2865.635271668,927,2023-11-13,0
14,HH_bbVV,2447.96631295,3586,2023-11-13,0
32,unknown,1987.03648613,6367,2023-11-13,0
31,ZdZd_2l2j,359.084192828,1,2023-11-13,0
0,??_Inv,329.596431872,9994,2023-11-13,0
2,??_run2,145.596994738,320,2023-11-13,0
27,HLRS_ttabb,100.692584607,72,2023-11-13,0
18,HH_bbyy,0.0,3,2023-11-13,0
1,??_nodescription,0.0,0,2023-11-13,0
15,HH_bbbb,0.0,0,2023-11-13,0
12,HBSM_tbH_tautau,0.0,0,2023-11-13,0
24,HLRS_solart,0.0,0,2023-11-13,0
25,HLRS_ttXtautau,0.0,0,2023-11-13,0
8,HBSM_HppWW,0.0,2,2023-11-13,0
6,DJR,0.0,0,2023-11-13,0
3,AZH,0.0,0,2023-11-13,0
