,Analysis,Quota,Total Files,date,expiring
27,VVsemileptonic,40775.9727916,18020,2023-07-12,0
22,HLRS_solarb,31605.537236,4900,2023-07-12,0
11,HBSM_tautau,14109.2472149,50031,2023-07-12,0
21,HLRS_lily,11676.8573043,10282,2023-07-12,0
15,HH_bbll,10267.0805909,3009,2023-07-12,0
20,HLRS_ZdZd,9886.93244031,111,2023-07-12,0
16,HH_bbtautau,9583.53087267,127516,2023-07-12,2
19,HLRS_ZH_Dy,9317.46846577,3495,2023-07-12,0
9,HBSM_Hptaunu,8702.63272832,20929,2023-07-12,0
30,unknown,6379.41030841,5005,2023-07-12,0
28,YXH,6078.07065795,11495,2023-07-12,0
12,HH_ML,5541.1068964,3839,2023-07-12,0
5,DBL_ssWWWZ,4728.89563912,796,2023-07-12,0
25,HLRS_ttXuu,4555.8704311,3413,2023-07-12,0
10,HBSM_bHbbb,4523.61446264,1145,2023-07-12,0
18,HLRS_4tau,4439.30489078,41,2023-07-12,0
4,DBL_GHH,3924.03161186,5287,2023-07-12,0
26,VVJJ,2836.06403393,886,2023-07-12,0
13,HH_bbVV,2212.69760589,3562,2023-07-12,18
7,HBSM_H+WH,1611.90823914,25,2023-07-12,0
29,ZdZd_2l2j,905.913985869,72,2023-07-12,0
0,??_Inv,285.978892297,17056,2023-07-12,0
1,??_nodescription,0.0,0,2023-07-12,0
17,HH_bbyy,0.0,3,2023-07-12,0
6,DJR,0.0,0,2023-07-12,0
8,HBSM_HppWW,0.0,2,2023-07-12,0
3,AZH,0.0,0,2023-07-12,0
23,HLRS_solart,0.0,0,2023-07-12,0
24,HLRS_ttXtautau,0.0,0,2023-07-12,0
14,HH_bbbb,0.0,0,2023-07-12,0
2,??_run2,0.0,0,2023-07-12,0
