HpWh_4jin2bex_00_v1
HpWh_5jin3bin_00_v1
HpWh_5jin3bin_01_v1
HpWh_5jin3bin_02_v1
HpWh_5jin3bin_03_v1
HpWh_5jin3bin_04_v1
HpWh_5jin3bin_05_v1
HpWh_5jin3bin_06_v1
HpWh_5jin3bin_07_v1
HpWh_5jin3bin_08_v1
HpWh_5jin3bin_09_v1
HpWh_5jin3bin_10_v1
HpWh_5jin3bin_11_v1
HpWh_5jin3bin_12_v1
HpWh_5jin3bin_13_v1
HpWh_5jin3bin_14_v1
HpWh_5jin3bin_15_v1
HpWh_5jin3bin_16_v1
HpWh_5jin3bin_17_v1
HpWh_5jin3bin_18_v1
HpWh_5jin3bin_19_v1
HpWh_5jin3bin_20_v1
HpWh_5jin3bin_21_v1
HpWh_5jin3bin_22_v1
HpWh_5jin3bin_23_v1
HpWh_5jin3bin_24_v1
HBSM_HpWH_CR_v1
HBSM_HpWH_DATA
HBSM_HpWH_SR_00
HBSM_HpWH_SR_01_v1
HBSM_HpWH_SR_02_v1
HBSM_HpWH_SR_03_v1
HBSM_HpWH_SR_04_v1
HBSM_HpWH_SR_05_v1
HBSM_HpWH_SR_06_v1
HBSM_HpWH_SR_07_v1
HBSM_HpWH_SR_08_v1
HBSM_HpWH_SR_09_v1
HBSM_HpWH_SR_10_v1
HBSM_HpWH_SR_11_v1
HBSM_HpWH_SR_12_v1
HBSM_HpWH_SR_13_v1
HBSM_HpWH_SR_14_v1
HBSM_HpWH_SR_15_v1
HBSM_HpWH_SR_16_v1
HBSM_HpWH_SR_17_v1
HBSM_HpWH_SR_18_v1
HBSM_HpWH_SR_19_v1
HBSM_HpWH_SR_20_v1
HBSM_HpWH_SR_21_v1
HBSM_HpWH_SR_22_v1
HBSM_HpWH_SR_23_v1
HBSM_HpWH_SR_24_v1
HBSM_HpWH_SR_25_v1
HBSM_HpWH_SR_26_v1
HBSM_HpWH_SR_27_v1
HBSM_HpWH_SR_28_v1
HBSM_HpWH_SR_29_v1
HBSM_HpWH_SR_30_v1
HBSM_HpWH_SR_31_v1
HBSM_HpWH_SR_32_v1
HBSM_HpWH_SR_33_v1
HBSM_HpWH_SR_34_v1
HBSM_HpWH_SR_35_v1
HBSM_HpWH_SR_36_v1
HBSM_HpWH_SR_37_v1
HBSM_HpWH_SR_38_v1
HBSM_HpWH_SR_39_v1
HBSM_HpWH_SR_40_v1
HBSM_HpWH_SR_41_v1
HBSM_HpWH_SR_42_v1
HBSM_HpWH_SR_43_v1
HBSM_HpWH_SR_44_v1
HBSM_HpWH_SR_45_v1
HBSM_HpWH_SR_46_v1
HBSM_HpWH_SR_47_v1
HBSM_HpWH_SR_48_v1
HBSM_HpWH_SR_49_v1
HBSM_HpWH_SR_50_v1
HBSM_HpWH_SR_51_v1
HBSM_HpWH_SR_53_v1
HBSM_HpWH_SR_57_v1
HBSM_HpWH_SR_58_v1
HBSM_HpWH_SR_59_v1
HBSM_HpWH_SR_60_v1
