h026_mc16e_LeptonMETSys_mc16e.PowhegPy8EG_NNPDF30_VBFH125.MxAODLeptonMETSys.e6970_s3126_r10724_p4180_h026_old
h026_mc16e_PhotonAllSys1_mc16e.PowhegPy8EG_NNPDF30_VBFH125.MxAODPhotonAllSys1.e6970_s3126_r10724_p4180_h026_old
h026_mc16a_PhotonAllSys2_mc16a.PowhegPy8_NNLOPS_ggH125.MxAODPhotonAllSys2.e5607_s3126_r9364_p4180_h026_old
