user.tygeorge.mc23_13p6TeV.HWW.bkg_Zjetslowm_mc23a.merge.PAOD_2L.v4_PAOD_2LSF.577422112.577422112
user.tygeorge.mc23_13p6TeV.HWW.bkg_Zjetslowm_mc23a.merge.PAOD_2L.v4_PAOD_2LSF.577442224.577442224
user.tygeorge.mc23_13p6TeV.HWW.bkg_Zjetslowm_mc23a.merge.PAOD_2L.v4_PAOD_2LSF.577444142.577444142
user.tygeorge.mc23_13p6TeV.HWW.bkg_Zjetslowm_mc23a.merge.PAOD_2L.v4_PAOD_2LSF.577483510.577483510
user.tygeorge.mc23_13p6TeV.HWW.bkg_Zjetslowm_mc23a.merge.PAOD_2L.v4_PAOD_2LSF.577499293.577499293
user.tygeorge.mc23_13p6TeV.HWW.bkg_Zjetslowm_mc23a.merge.PAOD_2L.v4_PAOD_2LSF.577502556.577502556
user.tygeorge.mc23_13p6TeV.HWW.bkg_Zjetslowm_mc23a.merge.PAOD_2L.v4_PAOD_2LSF.577503138.577503138
user.tygeorge.mc23_13p6TeV.HWW.bkg_Zjetslowm_mc23a.merge.PAOD_2L.v4_PAOD_2LSF.577527967.577527967
user.tygeorge.mc23_13p6TeV.HWW.bkg_Zjetslowm_mc23a.merge.PAOD_2L.v4_PAOD_2LSF.577561124.577561124
user.tygeorge.mc23_13p6TeV.HWW.bkg_mc23a.merge.PAOD_2L.TEST_v3_PAOD_2LSF.556073081.556073081
user.tygeorge.mc23_13p6TeV.HWW.bkg_mc23a.merge.PAOD_2L.TEST_v3_PAOD_2LSF.556106123.556106123
user.tygeorge.mc23_13p6TeV.HWW.bkg_mc23a.merge.PAOD_2L.TEST_v3_PAOD_2LSF.556113558.556113558
user.tygeorge.mc23_13p6TeV.HWW.bkg_mc23a.merge.PAOD_2L.TEST_v3_PAOD_2LSF.556113637.556113637
user.tygeorge.mc23_13p6TeV.HWW.bkg_mc23a.merge.PAOD_2L.TEST_v3_PAOD_2LSF.556115426.556115426
user.tygeorge.mc23_13p6TeV.HWW.bkg_mc23a.merge.PAOD_2L.TEST_v3_PAOD_2LSF.556115659.556115659
user.tygeorge.mc23_13p6TeV.HWW.bkg_mc23a.merge.PAOD_2L.TEST_v3_PAOD_2LSF.556115665.556115665
user.tygeorge.mc23_13p6TeV.HWW.bkg_mc23a.merge.PAOD_2L.TEST_v3_PAOD_2LSF.556118425.556118425
user.tygeorge.mc23_13p6TeV.HWW.bkg_mc23a.merge.PAOD_2L.TEST_v3_PAOD_2LSF.556119390.556119390
user.tygeorge.mc23_13p6TeV.HWW.bkg_mc23a.merge.PAOD_2L.TEST_v3_PAOD_2LSF.556119433.556119433
user.tygeorge.mc23_13p6TeV.HWW.bkg_mc23a.merge.PAOD_2L.TEST_v3_PAOD_2LSF.556120496.556120496
user.tygeorge.mc23_13p6TeV.HWW.bkg_mc23a.merge.PAOD_2L.TEST_v3_PAOD_2LSF.556121373.556121373
user.tygeorge.mc23_13p6TeV.HWW.bkg_mc23a.merge.PAOD_2L.TEST_v3_PAOD_2LSF.556134891.556134891
user.tygeorge.mc23_13p6TeV.HWW.bkg_mc23a.merge.PAOD_2L.TEST_v3_PAOD_2LSF.556134893.556134893
user.tygeorge.mc23_13p6TeV.HWW.bkg_mc23a.merge.PAOD_2L.TEST_v3_PAOD_2LSF.556137829.556137829
user.tygeorge.mc23_13p6TeV.HWW.bkg_mc23a.merge.PAOD_2L.TEST_v3_PAOD_2LSF.556143096.556143096
user.tygeorge.mc23_13p6TeV.HWW.bkg_mc23a.merge.PAOD_2L.TEST_v3_PAOD_2LSF.556143363.556143363
user.tygeorge.mc23_13p6TeV.HWW.bkg_mc23a.merge.PAOD_2L.TEST_v3_PAOD_2LSF.556146861.556146861
user.tygeorge.mc23_13p6TeV.HWW.bkg_mc23a.merge.PAOD_2L.TEST_v3_PAOD_2LSF.556147220.556147220
user.tygeorge.mc23_13p6TeV.HWW.bkg_mc23a.merge.PAOD_2L.TEST_v3_PAOD_2LSF.556163633.556163633
user.tygeorge.mc23_13p6TeV.HWW.bkg_mc23a.merge.PAOD_2L.TEST_v3_PAOD_2LSF.556172493.556172493
user.tygeorge.mc23_13p6TeV.HWW.bkg_mc23a.merge.PAOD_2L.TEST_v3_PAOD_2LSF.556216503.556216503
user.tygeorge.mc23_13p6TeV.HWW.bkg_mc23a.merge.PAOD_2L.TEST_v3_PAOD_2LSF.556297067.556297067
user.tygeorge.mc23_13p6TeV.HWW.bkg_mc23a.merge.PAOD_2L.TEST_v3_PAOD_2LSF.556309449.556309449
user.tygeorge.mc23_13p6TeV.HWW.bkg_mc23a.merge.PAOD_2L.TEST_v3_PAOD_2LSF.556627276.556627276
user.tygeorge.mc23_13p6TeV.HWW.bkg_mc23a.merge.PAOD_2L.TEST_v3_PAOD_2LSF.557677800.557677800
user.tygeorge.mc23_13p6TeV.HWW.bkg_mc23a.merge.PAOD_2L.TEST_v3_PAOD_2LSF.557717164.557717164
user.tygeorge.mc23_13p6TeV.HWW.bkg_mc23a.merge.PAOD_2L.TEST_v3_PAOD_2LSF.557766826.557766826
user.tygeorge.mc23_13p6TeV.HWW.bkg_mc23a.merge.PAOD_2L.TEST_v3_PAOD_2LSF.557784409.557784409
user.tygeorge.mc23_13p6TeV.HWW.bkg_mc23a.merge.PAOD_2L.TEST_v3_PAOD_2LSF.557839904.557839904
user.tygeorge.mc23_13p6TeV.HWW.bkg_mc23a.merge.PAOD_2L.TEST_v3_PAOD_2LSF.558762269.558762269
user.tygeorge.mc23_13p6TeV.HWW.bkg_mc23a.merge.PAOD_2L.TEST_v3_PAOD_2LSF.558762760.558762760
user.tygeorge.mc23_13p6TeV.HWW.bkg_mc23a.merge.PAOD_2L.TEST_v3_PAOD_2LSF.558762939.558762939
