mc15_13TeV.505461.MGPy8EG_A14NNPDF23_ttX_12_bb_lplusjet.deriv.DAOD_TRUTH3.e8304_e7400_p4527_tid34024881_00
mc15_13TeV.505461.MGPy8EG_A14NNPDF23_ttX_12_bb_lplusjet.deriv.DAOD_TRUTH3.e8304_e7400_p4527_tid34024883_00
mc15_13TeV.505461.MGPy8EG_A14NNPDF23_ttX_12_bb_lplusjet.deriv.DAOD_TRUTH3.e8304_e7400_p4527_tid34024885_00
mc15_13TeV.505462.MGPy8EG_A14NNPDF23_ttX_16_bb_lplusjet.deriv.DAOD_TRUTH3.e8304_e7400_p4527_tid34024835_00
mc15_13TeV.505462.MGPy8EG_A14NNPDF23_ttX_16_bb_lplusjet.deriv.DAOD_TRUTH3.e8304_e7400_p4527_tid34024837_00
mc15_13TeV.505462.MGPy8EG_A14NNPDF23_ttX_16_bb_lplusjet.deriv.DAOD_TRUTH3.e8304_e7400_p4527_tid34024839_00
mc15_13TeV.505463.MGPy8EG_A14NNPDF23_ttX_20_bb_lplusjet.deriv.DAOD_TRUTH3.e8304_e7400_p4527_tid34024922_00
mc15_13TeV.505463.MGPy8EG_A14NNPDF23_ttX_20_bb_lplusjet.deriv.DAOD_TRUTH3.e8304_e7400_p4527_tid34024924_00
mc15_13TeV.505463.MGPy8EG_A14NNPDF23_ttX_20_bb_lplusjet.deriv.DAOD_TRUTH3.e8304_e7400_p4527_tid34024927_00
mc15_13TeV.505464.MGPy8EG_A14NNPDF23_ttX_30_bb_lplusjet.deriv.DAOD_TRUTH3.e8304_e7400_p4527_tid34024841_00
mc15_13TeV.505464.MGPy8EG_A14NNPDF23_ttX_30_bb_lplusjet.deriv.DAOD_TRUTH3.e8304_e7400_p4527_tid34024843_00
mc15_13TeV.505464.MGPy8EG_A14NNPDF23_ttX_30_bb_lplusjet.deriv.DAOD_TRUTH3.e8304_e7400_p4527_tid34024846_00
mc15_13TeV.505465.MGPy8EG_A14NNPDF23_ttX_40_bb_lplusjet.deriv.DAOD_TRUTH3.e8304_e7400_p4527_tid34024817_00
mc15_13TeV.505465.MGPy8EG_A14NNPDF23_ttX_40_bb_lplusjet.deriv.DAOD_TRUTH3.e8304_e7400_p4527_tid34024819_00
mc15_13TeV.505465.MGPy8EG_A14NNPDF23_ttX_40_bb_lplusjet.deriv.DAOD_TRUTH3.e8304_e7400_p4527_tid34024821_00
mc15_13TeV.505466.MGPy8EG_A14NNPDF23_ttX_60_bb_lplusjet.deriv.DAOD_TRUTH3.e8304_e7400_p4527_tid34024855_00
mc15_13TeV.505466.MGPy8EG_A14NNPDF23_ttX_60_bb_lplusjet.deriv.DAOD_TRUTH3.e8304_e7400_p4527_tid34024857_00
mc15_13TeV.505466.MGPy8EG_A14NNPDF23_ttX_60_bb_lplusjet.deriv.DAOD_TRUTH3.e8304_e7400_p4527_tid34024859_00
mc15_13TeV.505467.MGPy8EG_A14NNPDF23_ttX_80_bb_lplusjet.deriv.DAOD_TRUTH3.e8304_e7400_p4527_tid34024901_00
mc15_13TeV.505467.MGPy8EG_A14NNPDF23_ttX_80_bb_lplusjet.deriv.DAOD_TRUTH3.e8304_e7400_p4527_tid34024903_00
mc15_13TeV.505467.MGPy8EG_A14NNPDF23_ttX_80_bb_lplusjet.deriv.DAOD_TRUTH3.e8304_e7400_p4527_tid34024905_00
mc15_13TeV.505468.MGPy8EG_A14NNPDF23_ttX_100_bb_lplusjet.deriv.DAOD_TRUTH3.e8304_e7400_p4527_tid34024811_00
mc15_13TeV.505468.MGPy8EG_A14NNPDF23_ttX_100_bb_lplusjet.deriv.DAOD_TRUTH3.e8304_e7400_p4527_tid34024813_00
mc15_13TeV.505468.MGPy8EG_A14NNPDF23_ttX_100_bb_lplusjet.deriv.DAOD_TRUTH3.e8304_e7400_p4527_tid34024815_00
mc15_13TeV.505469.MGPy8EG_A14NNPDF23_ttX_12_bb_lminusjet.deriv.DAOD_TRUTH3.e8304_e7400_p4527_tid34024887_00
mc15_13TeV.505469.MGPy8EG_A14NNPDF23_ttX_12_bb_lminusjet.deriv.DAOD_TRUTH3.e8304_e7400_p4527_tid34024889_00
mc15_13TeV.505469.MGPy8EG_A14NNPDF23_ttX_12_bb_lminusjet.deriv.DAOD_TRUTH3.e8304_e7400_p4527_tid34024891_00
mc15_13TeV.505470.MGPy8EG_A14NNPDF23_ttX_16_bb_lminusjet.deriv.DAOD_TRUTH3.e8304_e7400_p4527_tid34024939_00
mc15_13TeV.505470.MGPy8EG_A14NNPDF23_ttX_16_bb_lminusjet.deriv.DAOD_TRUTH3.e8304_e7400_p4527_tid34024941_00
mc15_13TeV.505470.MGPy8EG_A14NNPDF23_ttX_16_bb_lminusjet.deriv.DAOD_TRUTH3.e8304_e7400_p4527_tid34024944_00
mc15_13TeV.505471.MGPy8EG_A14NNPDF23_ttX_20_bb_lminusjet.deriv.DAOD_TRUTH3.e8304_e7400_p4527_tid34024797_00
mc15_13TeV.505471.MGPy8EG_A14NNPDF23_ttX_20_bb_lminusjet.deriv.DAOD_TRUTH3.e8304_e7400_p4527_tid34024799_00
mc15_13TeV.505471.MGPy8EG_A14NNPDF23_ttX_20_bb_lminusjet.deriv.DAOD_TRUTH3.e8304_e7400_p4527_tid34024801_00
mc15_13TeV.505472.MGPy8EG_A14NNPDF23_ttX_30_bb_lminusjet.deriv.DAOD_TRUTH3.e8304_e7400_p4527_tid34024908_00
mc15_13TeV.505472.MGPy8EG_A14NNPDF23_ttX_30_bb_lminusjet.deriv.DAOD_TRUTH3.e8304_e7400_p4527_tid34024910_00
mc15_13TeV.505472.MGPy8EG_A14NNPDF23_ttX_30_bb_lminusjet.deriv.DAOD_TRUTH3.e8304_e7400_p4527_tid34024912_00
mc15_13TeV.505473.MGPy8EG_A14NNPDF23_ttX_40_bb_lminusjet.deriv.DAOD_TRUTH3.e8304_e7400_p4527_tid34024823_00
mc15_13TeV.505473.MGPy8EG_A14NNPDF23_ttX_40_bb_lminusjet.deriv.DAOD_TRUTH3.e8304_e7400_p4527_tid34024825_00
mc15_13TeV.505473.MGPy8EG_A14NNPDF23_ttX_40_bb_lminusjet.deriv.DAOD_TRUTH3.e8304_e7400_p4527_tid34024827_00
mc15_13TeV.505474.MGPy8EG_A14NNPDF23_ttX_60_bb_lminusjet.deriv.DAOD_TRUTH3.e8304_e7400_p4527_tid34024804_00
mc15_13TeV.505474.MGPy8EG_A14NNPDF23_ttX_60_bb_lminusjet.deriv.DAOD_TRUTH3.e8304_e7400_p4527_tid34024807_00
mc15_13TeV.505474.MGPy8EG_A14NNPDF23_ttX_60_bb_lminusjet.deriv.DAOD_TRUTH3.e8304_e7400_p4527_tid34024809_00
mc15_13TeV.505475.MGPy8EG_A14NNPDF23_ttX_80_bb_lminusjet.deriv.DAOD_TRUTH3.e8304_e7400_p4527_tid34024829_00
mc15_13TeV.505475.MGPy8EG_A14NNPDF23_ttX_80_bb_lminusjet.deriv.DAOD_TRUTH3.e8304_e7400_p4527_tid34024831_00
mc15_13TeV.505475.MGPy8EG_A14NNPDF23_ttX_80_bb_lminusjet.deriv.DAOD_TRUTH3.e8304_e7400_p4527_tid34024833_00
mc15_13TeV.505476.MGPy8EG_A14NNPDF23_ttX_100_bb_lminusjet.deriv.DAOD_TRUTH3.e8304_e7400_p4527_tid34024932_00
mc15_13TeV.505476.MGPy8EG_A14NNPDF23_ttX_100_bb_lminusjet.deriv.DAOD_TRUTH3.e8304_e7400_p4527_tid34024934_00
mc15_13TeV.505476.MGPy8EG_A14NNPDF23_ttX_100_bb_lminusjet.deriv.DAOD_TRUTH3.e8304_e7400_p4527_tid34024936_00
mc15_13TeV.505477.MGPy8EG_A14NNPDF23_ttX_12_bb_dilep.deriv.DAOD_TRUTH3.e8304_e7400_p4527_tid34024915_00
mc15_13TeV.505477.MGPy8EG_A14NNPDF23_ttX_12_bb_dilep.deriv.DAOD_TRUTH3.e8304_e7400_p4527_tid34024917_00
mc15_13TeV.505477.MGPy8EG_A14NNPDF23_ttX_12_bb_dilep.deriv.DAOD_TRUTH3.e8304_e7400_p4527_tid34024919_00
mc15_13TeV.505478.MGPy8EG_A14NNPDF23_ttX_16_bb_dilep.deriv.DAOD_TRUTH3.e8304_e7400_p4527_tid34024849_00
mc15_13TeV.505478.MGPy8EG_A14NNPDF23_ttX_16_bb_dilep.deriv.DAOD_TRUTH3.e8304_e7400_p4527_tid34024851_00
mc15_13TeV.505478.MGPy8EG_A14NNPDF23_ttX_16_bb_dilep.deriv.DAOD_TRUTH3.e8304_e7400_p4527_tid34024853_00
mc15_13TeV.505479.MGPy8EG_A14NNPDF23_ttX_20_bb_dilep.deriv.DAOD_TRUTH3.e8304_e7400_p4527_tid34024948_00
mc15_13TeV.505479.MGPy8EG_A14NNPDF23_ttX_20_bb_dilep.deriv.DAOD_TRUTH3.e8304_e7400_p4527_tid34024950_00
mc15_13TeV.505479.MGPy8EG_A14NNPDF23_ttX_20_bb_dilep.deriv.DAOD_TRUTH3.e8304_e7400_p4527_tid34024952_00
mc15_13TeV.505480.MGPy8EG_A14NNPDF23_ttX_30_bb_dilep.deriv.DAOD_TRUTH3.e8304_e7400_p4527_tid34024861_00
mc15_13TeV.505480.MGPy8EG_A14NNPDF23_ttX_30_bb_dilep.deriv.DAOD_TRUTH3.e8304_e7400_p4527_tid34024863_00
mc15_13TeV.505480.MGPy8EG_A14NNPDF23_ttX_30_bb_dilep.deriv.DAOD_TRUTH3.e8304_e7400_p4527_tid34024865_00
mc15_13TeV.505481.MGPy8EG_A14NNPDF23_ttX_40_bb_dilep.deriv.DAOD_TRUTH3.e8304_e7400_p4527_tid34024867_00
mc15_13TeV.505481.MGPy8EG_A14NNPDF23_ttX_40_bb_dilep.deriv.DAOD_TRUTH3.e8304_e7400_p4527_tid34024869_00
mc15_13TeV.505481.MGPy8EG_A14NNPDF23_ttX_40_bb_dilep.deriv.DAOD_TRUTH3.e8304_e7400_p4527_tid34024871_00
mc15_13TeV.505482.MGPy8EG_A14NNPDF23_ttX_60_bb_dilep.deriv.DAOD_TRUTH3.e8304_e7400_p4527_tid34024893_00
mc15_13TeV.505482.MGPy8EG_A14NNPDF23_ttX_60_bb_dilep.deriv.DAOD_TRUTH3.e8304_e7400_p4527_tid34024897_00
mc15_13TeV.505482.MGPy8EG_A14NNPDF23_ttX_60_bb_dilep.deriv.DAOD_TRUTH3.e8304_e7400_p4527_tid34024899_00
mc15_13TeV.505483.MGPy8EG_A14NNPDF23_ttX_80_bb_dilep.deriv.DAOD_TRUTH3.e8304_e7400_p4527_tid34024873_00
mc15_13TeV.505483.MGPy8EG_A14NNPDF23_ttX_80_bb_dilep.deriv.DAOD_TRUTH3.e8304_e7400_p4527_tid34024877_00
mc15_13TeV.505483.MGPy8EG_A14NNPDF23_ttX_80_bb_dilep.deriv.DAOD_TRUTH3.e8304_e7400_p4527_tid34024879_00
mc15_13TeV.505484.MGPy8EG_A14NNPDF23_ttX_100_bb_dilep.deriv.DAOD_TRUTH3.e8304_e7400_p4527_tid34024955_00
mc15_13TeV.505484.MGPy8EG_A14NNPDF23_ttX_100_bb_dilep.deriv.DAOD_TRUTH3.e8304_e7400_p4527_tid34024957_00
mc15_13TeV.505484.MGPy8EG_A14NNPDF23_ttX_100_bb_dilep.deriv.DAOD_TRUTH3.e8304_e7400_p4527_tid34024960_00
