user.angianni.CxAOD_VVJJ.00xxxyyy.physics_Main.data1516_04may21_CxAOD.root.374922689
user.angianni.CxAOD_VVJJ.00xxxyyy.physics_Main.data1516_05oct24_CxAOD.root.567509914.567509914
user.angianni.CxAOD_VVJJ.00xxxyyy.physics_Main.data1516_05oct24_CxAOD.root.567510962.567510962
user.angianni.CxAOD_VVJJ.00xxxyyy.physics_Main.data1516_05oct24_CxAOD.root.567510968.567510968
user.angianni.CxAOD_VVJJ.00xxxyyy.physics_Main.data1516_05oct24_CxAOD.root.567510979.567510979
user.angianni.CxAOD_VVJJ.00xxxyyy.physics_Main.data1516_05oct24_CxAOD.root.567510986.567510986
user.angianni.CxAOD_VVJJ.00xxxyyy.physics_Main.data1516_05oct24_CxAOD.root.567511008.567511008
user.angianni.CxAOD_VVJJ.00xxxyyy.physics_Main.data1516_05oct24_CxAOD.root.567511023.567511023
user.angianni.CxAOD_VVJJ.00xxxyyy.physics_Main.data1516_05oct24_CxAOD.root.567511032.567511032
user.angianni.CxAOD_VVJJ.00xxxyyy.physics_Main.data1516_05oct24_CxAOD.root.567511040.567511040
user.angianni.CxAOD_VVJJ.00xxxyyy.physics_Main.data1516_05oct24_CxAOD.root.567511109.567511109
user.angianni.CxAOD_VVJJ.00xxxyyy.physics_Main.data1516_05oct24_CxAOD.root.567511117.567511117
user.angianni.CxAOD_VVJJ.00xxxyyy.physics_Main.data1516_05oct24_CxAOD.root.567511121.567511121
user.angianni.CxAOD_VVJJ.00xxxyyy.physics_Main.data1516_05oct24_CxAOD.root.567511372.567511372
user.angianni.CxAOD_VVJJ.00xxxyyy.physics_Main.data1516_05oct24_CxAOD.root.567511412.567511412
user.angianni.CxAOD_VVJJ.00xxxyyy.physics_Main.data1516_05oct24_CxAOD.root.567511424.567511424
user.angianni.CxAOD_VVJJ.00xxxyyy.physics_Main.data1516_05oct24_CxAOD.root.567511439.567511439
user.angianni.CxAOD_VVJJ.00xxxyyy.physics_Main.data1516_05oct24_CxAOD.root.567511456.567511456
user.angianni.CxAOD_VVJJ.00xxxyyy.physics_Main.data1516_05oct24_CxAOD.root.567511464.567511464
user.angianni.CxAOD_VVJJ.00xxxyyy.physics_Main.data1516_05oct24_CxAOD.root.567511500.567511500
user.angianni.CxAOD_VVJJ.00xxxyyy.physics_Main.data1516_05oct24_CxAOD.root.567511515.567511515
user.angianni.CxAOD_VVJJ.00xxxyyy.physics_Main.data1516_05oct24_CxAOD.root.567511559.567511559
user.angianni.CxAOD_VVJJ.00xxxyyy.physics_Main.data1516_05oct24_CxAOD.root.567511678.567511678
user.angianni.CxAOD_VVJJ.00xxxyyy.physics_Main.data1516_05oct24_CxAOD.root.567511722.567511722
user.angianni.CxAOD_VVJJ.00xxxyyy.physics_Main.data1516_05oct24_CxAOD.root.567512005.567512005
user.angianni.CxAOD_VVJJ.00xxxyyy.physics_Main.data1516_05oct24_CxAOD.root.567512085.567512085
user.angianni.CxAOD_VVJJ.00xxxyyy.physics_Main.data1516_05oct24_CxAOD.root.567512356.567512356
user.angianni.CxAOD_VVJJ.00xxxyyy.physics_Main.data1516_05oct24_CxAOD.root.567512359.567512359
user.angianni.CxAOD_VVJJ.00xxxyyy.physics_Main.data1516_05oct24_CxAOD.root.567512375.567512375
user.angianni.CxAOD_VVJJ.00xxxyyy.physics_Main.data1516_05oct24_CxAOD.root.567512383.567512383
user.angianni.CxAOD_VVJJ.00xxxyyy.physics_Main.data1516_05oct24_CxAOD.root.567512397.567512397
user.angianni.CxAOD_VVJJ.00xxxyyy.physics_Main.data1516_05oct24_CxAOD.root.567512482.567512482
user.angianni.CxAOD_VVJJ.00xxxyyy.physics_Main.data1516_05oct24_CxAOD.root.567512520.567512520
user.angianni.CxAOD_VVJJ.00xxxyyy.physics_Main.data1516_05oct24_CxAOD.root.567512559.567512559
user.angianni.CxAOD_VVJJ.00xxxyyy.physics_Main.data1516_05oct24_CxAOD.root.567512568.567512568
user.angianni.CxAOD_VVJJ.00xxxyyy.physics_Main.data1516_05oct24_CxAOD.root.567512638.567512638
user.angianni.CxAOD_VVJJ.00xxxyyy.physics_Main.data1516_05oct24_CxAOD.root.567512662.567512662
user.angianni.CxAOD_VVJJ.00xxxyyy.physics_Main.data1516_05oct24_CxAOD.root.567512686.567512686
user.angianni.CxAOD_VVJJ.00xxxyyy.physics_Main.data1516_05oct24_CxAOD.root.567512769.567512769
user.angianni.CxAOD_VVJJ.00xxxyyy.physics_Main.data1516_05oct24_CxAOD.root.567512797.567512797
user.angianni.CxAOD_VVJJ.00xxxyyy.physics_Main.data1516_05oct24_CxAOD.root.567512817.567512817
user.angianni.CxAOD_VVJJ.00xxxyyy.physics_Main.data1516_05oct24_CxAOD.root.567512855.567512855
user.angianni.CxAOD_VVJJ.00xxxyyy.physics_Main.data1516_05oct24_CxAOD.root.567512865.567512865
user.angianni.CxAOD_VVJJ.00xxxyyy.physics_Main.data1516_05oct24_CxAOD.root.567512880.567512880
user.angianni.CxAOD_VVJJ.00xxxyyy.physics_Main.data1516_05oct24_CxAOD.root.567512957.567512957
user.angianni.CxAOD_VVJJ.00xxxyyy.physics_Main.data1516_05oct24_CxAOD.root.567512968.567512968
user.angianni.CxAOD_VVJJ.00xxxyyy.physics_Main.data1516_05oct24_CxAOD.root.567513056.567513056
user.angianni.CxAOD_VVJJ.00xxxyyy.physics_Main.data1516_05oct24_CxAOD.root.567513074.567513074
user.angianni.CxAOD_VVJJ.00xxxyyy.physics_Main.data1516_05oct24_CxAOD.root.567513106.567513106
user.angianni.CxAOD_VVJJ.00xxxyyy.physics_Main.data1516_05oct24_CxAOD.root.567513149.567513149
user.angianni.CxAOD_VVJJ.00xxxyyy.physics_Main.data1516_05oct24_CxAOD.root.567513284.567513284
user.angianni.CxAOD_VVJJ.00xxxyyy.physics_Main.data1516_05oct24_CxAOD.root.567513300.567513300
user.angianni.CxAOD_VVJJ.00xxxyyy.physics_Main.data1516_05oct24_CxAOD.root.567513359.567513359
user.angianni.CxAOD_VVJJ.00xxxyyy.physics_Main.data1516_05oct24_CxAOD.root.567513393.567513393
user.angianni.CxAOD_VVJJ.00xxxyyy.physics_Main.data1516_05oct24_CxAOD.root.567513639.567513639
user.angianni.CxAOD_VVJJ.00xxxyyy.physics_Main.data1516_05oct24_CxAOD.root.567519290.567519290
user.angianni.CxAOD_VVJJ.00xxxyyy.physics_Main.data1516_05oct24_CxAOD.root.567519648.567519648
user.angianni.CxAOD_VVJJ.00xxxyyy.physics_Main.data1516_05oct24_CxAOD.root.567521380.567521380
user.angianni.CxAOD_VVJJ.00xxxyyy.physics_Main.data1516_05oct24_CxAOD.root.567522321.567522321
user.angianni.CxAOD_VVJJ.00xxxyyy.physics_Main.data1516_05oct24_CxAOD.root.567522767.567522767
user.angianni.CxAOD_VVJJ.00xxxyyy.physics_Main.data1516_05oct24_CxAOD.root.567530738.567530738
user.angianni.CxAOD_VVJJ.00xxxyyy.physics_Main.data1516_05oct24_CxAOD.root.568242273.568242273
user.angianni.CxAOD_VVJJ.00xxxyyy.physics_Main.data1516_05oct24_CxAOD.root.568242277.568242277
user.angianni.CxAOD_VVJJ.00xxxyyy.physics_Main.data1516_05oct24_CxAOD.root.568242285.568242285
user.angianni.CxAOD_VVJJ.00xxxyyy.physics_Main.data1516_05oct24_CxAOD.root.569536513.569536513
user.angianni.CxAOD_VVJJ.00xxxyyy.physics_Main.data1516_05oct24_CxAOD.root.569536516.569536516
user.angianni.CxAOD_VVJJ.00xxxyyy.physics_Main.data17_05oct24_CxAOD.root.567510817.567510817
user.angianni.CxAOD_VVJJ.00xxxyyy.physics_Main.data17_05oct24_CxAOD.root.567515503.567515503
user.angianni.CxAOD_VVJJ.00xxxyyy.physics_Main.data17_05oct24_CxAOD.root.567515511.567515511
user.angianni.CxAOD_VVJJ.00xxxyyy.physics_Main.data17_05oct24_CxAOD.root.567515515.567515515
user.angianni.CxAOD_VVJJ.00xxxyyy.physics_Main.data17_05oct24_CxAOD.root.567515537.567515537
user.angianni.CxAOD_VVJJ.00xxxyyy.physics_Main.data17_05oct24_CxAOD.root.567515541.567515541
user.angianni.CxAOD_VVJJ.00xxxyyy.physics_Main.data17_05oct24_CxAOD.root.567515556.567515556
user.angianni.CxAOD_VVJJ.00xxxyyy.physics_Main.data17_05oct24_CxAOD.root.567515561.567515561
user.angianni.CxAOD_VVJJ.00xxxyyy.physics_Main.data17_05oct24_CxAOD.root.567515586.567515586
user.angianni.CxAOD_VVJJ.00xxxyyy.physics_Main.data17_05oct24_CxAOD.root.567515591.567515591
user.angianni.CxAOD_VVJJ.00xxxyyy.physics_Main.data17_05oct24_CxAOD.root.567515607.567515607
user.angianni.CxAOD_VVJJ.00xxxyyy.physics_Main.data17_05oct24_CxAOD.root.567515623.567515623
user.angianni.CxAOD_VVJJ.00xxxyyy.physics_Main.data17_05oct24_CxAOD.root.567515628.567515628
user.angianni.CxAOD_VVJJ.00xxxyyy.physics_Main.data17_05oct24_CxAOD.root.567515714.567515714
user.angianni.CxAOD_VVJJ.00xxxyyy.physics_Main.data17_05oct24_CxAOD.root.567515725.567515725
user.angianni.CxAOD_VVJJ.00xxxyyy.physics_Main.data17_05oct24_CxAOD.root.567515753.567515753
user.angianni.CxAOD_VVJJ.00xxxyyy.physics_Main.data17_05oct24_CxAOD.root.567515761.567515761
user.angianni.CxAOD_VVJJ.00xxxyyy.physics_Main.data17_05oct24_CxAOD.root.567516500.567516500
user.angianni.CxAOD_VVJJ.00xxxyyy.physics_Main.data17_05oct24_CxAOD.root.567516534.567516534
user.angianni.CxAOD_VVJJ.00xxxyyy.physics_Main.data17_05oct24_CxAOD.root.567516541.567516541
user.angianni.CxAOD_VVJJ.00xxxyyy.physics_Main.data17_05oct24_CxAOD.root.567516566.567516566
user.angianni.CxAOD_VVJJ.00xxxyyy.physics_Main.data17_05oct24_CxAOD.root.567516712.567516712
user.angianni.CxAOD_VVJJ.00xxxyyy.physics_Main.data17_05oct24_CxAOD.root.567516735.567516735
user.angianni.CxAOD_VVJJ.00xxxyyy.physics_Main.data17_05oct24_CxAOD.root.567516768.567516768
user.angianni.CxAOD_VVJJ.00xxxyyy.physics_Main.data17_05oct24_CxAOD.root.567516871.567516871
user.angianni.CxAOD_VVJJ.00xxxyyy.physics_Main.data17_05oct24_CxAOD.root.567517228.567517228
user.angianni.CxAOD_VVJJ.00xxxyyy.physics_Main.data17_05oct24_CxAOD.root.567517451.567517451
user.angianni.CxAOD_VVJJ.00xxxyyy.physics_Main.data17_05oct24_CxAOD.root.567517717.567517717
user.angianni.CxAOD_VVJJ.00xxxyyy.physics_Main.data17_05oct24_CxAOD.root.567517906.567517906
user.angianni.CxAOD_VVJJ.00xxxyyy.physics_Main.data17_05oct24_CxAOD.root.567518282.567518282
user.angianni.CxAOD_VVJJ.00xxxyyy.physics_Main.data17_05oct24_CxAOD.root.567518296.567518296
user.angianni.CxAOD_VVJJ.00xxxyyy.physics_Main.data17_05oct24_CxAOD.root.567518467.567518467
user.angianni.CxAOD_VVJJ.00xxxyyy.physics_Main.data17_05oct24_CxAOD.root.567518503.567518503
user.angianni.CxAOD_VVJJ.00xxxyyy.physics_Main.data17_05oct24_CxAOD.root.567518640.567518640
user.angianni.CxAOD_VVJJ.00xxxyyy.physics_Main.data17_05oct24_CxAOD.root.567518779.567518779
user.angianni.CxAOD_VVJJ.00xxxyyy.physics_Main.data17_05oct24_CxAOD.root.567518916.567518916
user.angianni.CxAOD_VVJJ.00xxxyyy.physics_Main.data17_05oct24_CxAOD.root.567520238.567520238
user.angianni.CxAOD_VVJJ.00xxxyyy.physics_Main.data17_05oct24_CxAOD.root.567520302.567520302
user.angianni.CxAOD_VVJJ.00xxxyyy.physics_Main.data17_05oct24_CxAOD.root.567521137.567521137
user.angianni.CxAOD_VVJJ.00xxxyyy.physics_Main.data17_05oct24_CxAOD.root.567522161.567522161
user.angianni.CxAOD_VVJJ.00xxxyyy.physics_Main.data17_05oct24_CxAOD.root.567522289.567522289
user.angianni.CxAOD_VVJJ.00xxxyyy.physics_Main.data17_05oct24_CxAOD.root.567522295.567522295
user.angianni.CxAOD_VVJJ.00xxxyyy.physics_Main.data17_05oct24_CxAOD.root.567522302.567522302
user.angianni.CxAOD_VVJJ.00xxxyyy.physics_Main.data17_05oct24_CxAOD.root.567522312.567522312
user.angianni.CxAOD_VVJJ.00xxxyyy.physics_Main.data17_05oct24_CxAOD.root.567522442.567522442
user.angianni.CxAOD_VVJJ.00xxxyyy.physics_Main.data17_05oct24_CxAOD.root.567522452.567522452
user.angianni.CxAOD_VVJJ.00xxxyyy.physics_Main.data17_05oct24_CxAOD.root.567522457.567522457
user.angianni.CxAOD_VVJJ.00xxxyyy.physics_Main.data17_05oct24_CxAOD.root.567522496.567522496
user.angianni.CxAOD_VVJJ.00xxxyyy.physics_Main.data17_05oct24_CxAOD.root.567522582.567522582
user.angianni.CxAOD_VVJJ.00xxxyyy.physics_Main.data17_05oct24_CxAOD.root.567522753.567522753
user.angianni.CxAOD_VVJJ.00xxxyyy.physics_Main.data17_05oct24_CxAOD.root.568242258.568242258
user.angianni.CxAOD_VVJJ.00xxxyyy.physics_Main.data17_05oct24_CxAOD.root.569536338.569536338
user.angianni.CxAOD_VVJJ.00xxxyyy.physics_Main.data18_05oct24_CxAOD.root.567511383.567511383
user.angianni.CxAOD_VVJJ.00xxxyyy.physics_Main.data18_05oct24_CxAOD.root.567516346.567516346
user.angianni.CxAOD_VVJJ.00xxxyyy.physics_Main.data18_05oct24_CxAOD.root.567516355.567516355
user.angianni.CxAOD_VVJJ.00xxxyyy.physics_Main.data18_05oct24_CxAOD.root.567516359.567516359
user.angianni.CxAOD_VVJJ.00xxxyyy.physics_Main.data18_05oct24_CxAOD.root.567516363.567516363
user.angianni.CxAOD_VVJJ.00xxxyyy.physics_Main.data18_05oct24_CxAOD.root.567516376.567516376
user.angianni.CxAOD_VVJJ.00xxxyyy.physics_Main.data18_05oct24_CxAOD.root.567516384.567516384
user.angianni.CxAOD_VVJJ.00xxxyyy.physics_Main.data18_05oct24_CxAOD.root.567516391.567516391
user.angianni.CxAOD_VVJJ.00xxxyyy.physics_Main.data18_05oct24_CxAOD.root.567516406.567516406
user.angianni.CxAOD_VVJJ.00xxxyyy.physics_Main.data18_05oct24_CxAOD.root.567516410.567516410
user.angianni.CxAOD_VVJJ.00xxxyyy.physics_Main.data18_05oct24_CxAOD.root.567516545.567516545
user.angianni.CxAOD_VVJJ.00xxxyyy.physics_Main.data18_05oct24_CxAOD.root.567516549.567516549
user.angianni.CxAOD_VVJJ.00xxxyyy.physics_Main.data18_05oct24_CxAOD.root.567516570.567516570
user.angianni.CxAOD_VVJJ.00xxxyyy.physics_Main.data18_05oct24_CxAOD.root.567516685.567516685
user.angianni.CxAOD_VVJJ.00xxxyyy.physics_Main.data18_05oct24_CxAOD.root.567516716.567516716
user.angianni.CxAOD_VVJJ.00xxxyyy.physics_Main.data18_05oct24_CxAOD.root.567516737.567516737
user.angianni.CxAOD_VVJJ.00xxxyyy.physics_Main.data18_05oct24_CxAOD.root.567516749.567516749
user.angianni.CxAOD_VVJJ.00xxxyyy.physics_Main.data18_05oct24_CxAOD.root.567516760.567516760
user.angianni.CxAOD_VVJJ.00xxxyyy.physics_Main.data18_05oct24_CxAOD.root.567516899.567516899
user.angianni.CxAOD_VVJJ.00xxxyyy.physics_Main.data18_05oct24_CxAOD.root.567516932.567516932
user.angianni.CxAOD_VVJJ.00xxxyyy.physics_Main.data18_05oct24_CxAOD.root.567516939.567516939
user.angianni.CxAOD_VVJJ.00xxxyyy.physics_Main.data18_05oct24_CxAOD.root.567517058.567517058
user.angianni.CxAOD_VVJJ.00xxxyyy.physics_Main.data18_05oct24_CxAOD.root.567517290.567517290
user.angianni.CxAOD_VVJJ.00xxxyyy.physics_Main.data18_05oct24_CxAOD.root.567517463.567517463
user.angianni.CxAOD_VVJJ.00xxxyyy.physics_Main.data18_05oct24_CxAOD.root.567517657.567517657
user.angianni.CxAOD_VVJJ.00xxxyyy.physics_Main.data18_05oct24_CxAOD.root.567517703.567517703
user.angianni.CxAOD_VVJJ.00xxxyyy.physics_Main.data18_05oct24_CxAOD.root.567517852.567517852
user.angianni.CxAOD_VVJJ.00xxxyyy.physics_Main.data18_05oct24_CxAOD.root.567518100.567518100
user.angianni.CxAOD_VVJJ.00xxxyyy.physics_Main.data18_05oct24_CxAOD.root.567518118.567518118
user.angianni.CxAOD_VVJJ.00xxxyyy.physics_Main.data18_05oct24_CxAOD.root.567518302.567518302
user.angianni.CxAOD_VVJJ.00xxxyyy.physics_Main.data18_05oct24_CxAOD.root.567518483.567518483
user.angianni.CxAOD_VVJJ.00xxxyyy.physics_Main.data18_05oct24_CxAOD.root.567518498.567518498
user.angianni.CxAOD_VVJJ.00xxxyyy.physics_Main.data18_05oct24_CxAOD.root.567518598.567518598
user.angianni.CxAOD_VVJJ.00xxxyyy.physics_Main.data18_05oct24_CxAOD.root.567518752.567518752
user.angianni.CxAOD_VVJJ.00xxxyyy.physics_Main.data18_05oct24_CxAOD.root.567519183.567519183
user.angianni.CxAOD_VVJJ.00xxxyyy.physics_Main.data18_05oct24_CxAOD.root.567519198.567519198
user.angianni.CxAOD_VVJJ.00xxxyyy.physics_Main.data18_05oct24_CxAOD.root.567519285.567519285
user.angianni.CxAOD_VVJJ.00xxxyyy.physics_Main.data18_05oct24_CxAOD.root.567520449.567520449
user.angianni.CxAOD_VVJJ.00xxxyyy.physics_Main.data18_05oct24_CxAOD.root.567520582.567520582
user.angianni.CxAOD_VVJJ.00xxxyyy.physics_Main.data18_05oct24_CxAOD.root.567520790.567520790
user.angianni.CxAOD_VVJJ.00xxxyyy.physics_Main.data18_05oct24_CxAOD.root.567522448.567522448
user.angianni.CxAOD_VVJJ.00xxxyyy.physics_Main.data18_05oct24_CxAOD.root.567522887.567522887
user.angianni.CxAOD_VVJJ.00xxxyyy.physics_Main.data18_05oct24_CxAOD.root.567525110.567525110
user.angianni.CxAOD_VVJJ.00xxxyyy.physics_Main.data18_05oct24_CxAOD.root.567532552.567532552
user.angianni.CxAOD_VVJJ.00xxxyyy.physics_Main.data18_05oct24_CxAOD.root.567534029.567534029
user.angianni.CxAOD_VVJJ.00xxxyyy.physics_Main.data18_05oct24_CxAOD.root.567559424.567559424
user.angianni.CxAOD_VVJJ.00xxxyyy.physics_Main.data18_05oct24_CxAOD.root.569536303.569536303
user.angianni.CxAOD_VVJJ.00xxxyyy.physics_Main.data18_05oct24_CxAOD.root.569536342.569536342
user.angianni.CxAOD_VVJJ.00xxxyyy.physics_Main.data18_05oct24_CxAOD.root.569540918.569540918
user.angianni.CxAOD_VVJJ.505562.MGPy8EG_A14NNPDF23LO_HVT_Agv1_VzWW_qqqq_m1000.mc16a_05oct24_CxAOD.root.567520255.567520255
user.angianni.CxAOD_VVJJ.505562.MGPy8EG_A14NNPDF23LO_HVT_Agv1_VzWW_qqqq_m1000.mc16d_05oct24_CxAOD.root.567520872.567520872
user.angianni.CxAOD_VVJJ.505562.MGPy8EG_A14NNPDF23LO_HVT_Agv1_VzWW_qqqq_m1000.mc16e_05oct24_CxAOD.root.567521747.567521747
user.angianni.CxAOD_VVJJ.505563.MGPy8EG_A14NNPDF23LO_HVT_Agv1_VzWW_qqqq_m1100.mc16a_05oct24_CxAOD.root.567520574.567520574
user.angianni.CxAOD_VVJJ.505563.MGPy8EG_A14NNPDF23LO_HVT_Agv1_VzWW_qqqq_m1100.mc16d_05oct24_CxAOD.root.567518264.567518264
user.angianni.CxAOD_VVJJ.505563.MGPy8EG_A14NNPDF23LO_HVT_Agv1_VzWW_qqqq_m1100.mc16e_05oct24_CxAOD.root.567520345.567520345
user.angianni.CxAOD_VVJJ.505564.MGPy8EG_A14NNPDF23LO_HVT_Agv1_VzWW_qqqq_m1200.mc16a_05oct24_CxAOD.root.567520031.567520031
user.angianni.CxAOD_VVJJ.505564.MGPy8EG_A14NNPDF23LO_HVT_Agv1_VzWW_qqqq_m1200.mc16d_05oct24_CxAOD.root.567522286.567522286
user.angianni.CxAOD_VVJJ.505564.MGPy8EG_A14NNPDF23LO_HVT_Agv1_VzWW_qqqq_m1200.mc16e_05oct24_CxAOD.root.567524536.567524536
user.angianni.CxAOD_VVJJ.505565.MGPy8EG_A14NNPDF23LO_HVT_Agv1_VzWW_qqqq_m1300.mc16a_05oct24_CxAOD.root.567521844.567521844
user.angianni.CxAOD_VVJJ.505565.MGPy8EG_A14NNPDF23LO_HVT_Agv1_VzWW_qqqq_m1300.mc16d_05oct24_CxAOD.root.567535077.567535077
user.angianni.CxAOD_VVJJ.505565.MGPy8EG_A14NNPDF23LO_HVT_Agv1_VzWW_qqqq_m1300.mc16e_05oct24_CxAOD.root.567521744.567521744
user.angianni.CxAOD_VVJJ.505566.MGPy8EG_A14NNPDF23LO_HVT_Agv1_VzWW_qqqq_m1400.mc16a_05oct24_CxAOD.root.567525892.567525892
user.angianni.CxAOD_VVJJ.505566.MGPy8EG_A14NNPDF23LO_HVT_Agv1_VzWW_qqqq_m1400.mc16d_05oct24_CxAOD.root.567522409.567522409
user.angianni.CxAOD_VVJJ.505566.MGPy8EG_A14NNPDF23LO_HVT_Agv1_VzWW_qqqq_m1400.mc16e_05oct24_CxAOD.root.567521945.567521945
user.angianni.CxAOD_VVJJ.505567.MGPy8EG_A14NNPDF23LO_HVT_Agv1_VzWW_qqqq_m1500.mc16a_05oct24_CxAOD.root.567519790.567519790
user.angianni.CxAOD_VVJJ.505567.MGPy8EG_A14NNPDF23LO_HVT_Agv1_VzWW_qqqq_m1500.mc16d_05oct24_CxAOD.root.567520497.567520497
user.angianni.CxAOD_VVJJ.505567.MGPy8EG_A14NNPDF23LO_HVT_Agv1_VzWW_qqqq_m1500.mc16e_05oct24_CxAOD.root.567529261.567529261
user.angianni.CxAOD_VVJJ.505568.MGPy8EG_A14NNPDF23LO_HVT_Agv1_VzWW_qqqq_m1600.mc16a_05oct24_CxAOD.root.567535071.567535071
user.angianni.CxAOD_VVJJ.505568.MGPy8EG_A14NNPDF23LO_HVT_Agv1_VzWW_qqqq_m1600.mc16d_05oct24_CxAOD.root.567522431.567522431
user.angianni.CxAOD_VVJJ.505568.MGPy8EG_A14NNPDF23LO_HVT_Agv1_VzWW_qqqq_m1600.mc16e_05oct24_CxAOD.root.567521134.567521134
user.angianni.CxAOD_VVJJ.505569.MGPy8EG_A14NNPDF23LO_HVT_Agv1_VzWW_qqqq_m1700.mc16a_05oct24_CxAOD.root.567536588.567536588
user.angianni.CxAOD_VVJJ.505569.MGPy8EG_A14NNPDF23LO_HVT_Agv1_VzWW_qqqq_m1700.mc16d_05oct24_CxAOD.root.567521985.567521985
user.angianni.CxAOD_VVJJ.505569.MGPy8EG_A14NNPDF23LO_HVT_Agv1_VzWW_qqqq_m1700.mc16e_05oct24_CxAOD.root.567522172.567522172
user.angianni.CxAOD_VVJJ.505570.MGPy8EG_A14NNPDF23LO_HVT_Agv1_VzWW_qqqq_m1800.mc16a_05oct24_CxAOD.root.567519814.567519814
user.angianni.CxAOD_VVJJ.505570.MGPy8EG_A14NNPDF23LO_HVT_Agv1_VzWW_qqqq_m1800.mc16d_05oct24_CxAOD.root.567525770.567525770
user.angianni.CxAOD_VVJJ.505570.MGPy8EG_A14NNPDF23LO_HVT_Agv1_VzWW_qqqq_m1800.mc16e_05oct24_CxAOD.root.567524066.567524066
user.angianni.CxAOD_VVJJ.505571.MGPy8EG_A14NNPDF23LO_HVT_Agv1_VzWW_qqqq_m1900.mc16a_05oct24_CxAOD.root.567519321.567519321
user.angianni.CxAOD_VVJJ.505571.MGPy8EG_A14NNPDF23LO_HVT_Agv1_VzWW_qqqq_m1900.mc16d_05oct24_CxAOD.root.567529913.567529913
user.angianni.CxAOD_VVJJ.505571.MGPy8EG_A14NNPDF23LO_HVT_Agv1_VzWW_qqqq_m1900.mc16e_05oct24_CxAOD.root.567519841.567519841
user.angianni.CxAOD_VVJJ.505572.MGPy8EG_A14NNPDF23LO_HVT_Agv1_VzWW_qqqq_m2000.mc16a_05oct24_CxAOD.root.567520987.567520987
user.angianni.CxAOD_VVJJ.505572.MGPy8EG_A14NNPDF23LO_HVT_Agv1_VzWW_qqqq_m2000.mc16d_05oct24_CxAOD.root.567520308.567520308
user.angianni.CxAOD_VVJJ.505572.MGPy8EG_A14NNPDF23LO_HVT_Agv1_VzWW_qqqq_m2000.mc16e_05oct24_CxAOD.root.567522090.567522090
user.angianni.CxAOD_VVJJ.505573.MGPy8EG_A14NNPDF23LO_HVT_Agv1_VzWW_qqqq_m2200.mc16a_05oct24_CxAOD.root.567521050.567521050
user.angianni.CxAOD_VVJJ.505573.MGPy8EG_A14NNPDF23LO_HVT_Agv1_VzWW_qqqq_m2200.mc16d_05oct24_CxAOD.root.567520744.567520744
user.angianni.CxAOD_VVJJ.505573.MGPy8EG_A14NNPDF23LO_HVT_Agv1_VzWW_qqqq_m2200.mc16e_05oct24_CxAOD.root.567522867.567522867
user.angianni.CxAOD_VVJJ.505574.MGPy8EG_A14NNPDF23LO_HVT_Agv1_VzWW_qqqq_m2400.mc16a_05oct24_CxAOD.root.567519920.567519920
user.angianni.CxAOD_VVJJ.505574.MGPy8EG_A14NNPDF23LO_HVT_Agv1_VzWW_qqqq_m2400.mc16d_05oct24_CxAOD.root.567536593.567536593
user.angianni.CxAOD_VVJJ.505574.MGPy8EG_A14NNPDF23LO_HVT_Agv1_VzWW_qqqq_m2400.mc16e_05oct24_CxAOD.root.567521020.567521020
user.angianni.CxAOD_VVJJ.505575.MGPy8EG_A14NNPDF23LO_HVT_Agv1_VzWW_qqqq_m2600.mc16a_05oct24_CxAOD.root.567525305.567525305
user.angianni.CxAOD_VVJJ.505575.MGPy8EG_A14NNPDF23LO_HVT_Agv1_VzWW_qqqq_m2600.mc16d_05oct24_CxAOD.root.567522184.567522184
user.angianni.CxAOD_VVJJ.505575.MGPy8EG_A14NNPDF23LO_HVT_Agv1_VzWW_qqqq_m2600.mc16e_05oct24_CxAOD.root.567520469.567520469
user.angianni.CxAOD_VVJJ.505576.MGPy8EG_A14NNPDF23LO_HVT_Agv1_VzWW_qqqq_m2800.mc16a_05oct24_CxAOD.root.567521841.567521841
user.angianni.CxAOD_VVJJ.505576.MGPy8EG_A14NNPDF23LO_HVT_Agv1_VzWW_qqqq_m2800.mc16d_05oct24_CxAOD.root.567519529.567519529
user.angianni.CxAOD_VVJJ.505576.MGPy8EG_A14NNPDF23LO_HVT_Agv1_VzWW_qqqq_m2800.mc16e_05oct24_CxAOD.root.567520485.567520485
user.angianni.CxAOD_VVJJ.505577.MGPy8EG_A14NNPDF23LO_HVT_Agv1_VzWW_qqqq_m3000.mc16a_05oct24_CxAOD.root.567521035.567521035
user.angianni.CxAOD_VVJJ.505577.MGPy8EG_A14NNPDF23LO_HVT_Agv1_VzWW_qqqq_m3000.mc16d_05oct24_CxAOD.root.567519389.567519389
user.angianni.CxAOD_VVJJ.505577.MGPy8EG_A14NNPDF23LO_HVT_Agv1_VzWW_qqqq_m3000.mc16e_05oct24_CxAOD.root.567521553.567521553
user.angianni.CxAOD_VVJJ.505578.MGPy8EG_A14NNPDF23LO_HVT_Agv1_VzWW_qqqq_m3500.mc16a_05oct24_CxAOD.root.567519592.567519592
user.angianni.CxAOD_VVJJ.505578.MGPy8EG_A14NNPDF23LO_HVT_Agv1_VzWW_qqqq_m3500.mc16d_05oct24_CxAOD.root.567519966.567519966
user.angianni.CxAOD_VVJJ.505578.MGPy8EG_A14NNPDF23LO_HVT_Agv1_VzWW_qqqq_m3500.mc16e_05oct24_CxAOD.root.567519783.567519783
user.angianni.CxAOD_VVJJ.505579.MGPy8EG_A14NNPDF23LO_HVT_Agv1_VzWW_qqqq_m4000.mc16a_05oct24_CxAOD.root.567524666.567524666
user.angianni.CxAOD_VVJJ.505579.MGPy8EG_A14NNPDF23LO_HVT_Agv1_VzWW_qqqq_m4000.mc16d_05oct24_CxAOD.root.567519898.567519898
user.angianni.CxAOD_VVJJ.505579.MGPy8EG_A14NNPDF23LO_HVT_Agv1_VzWW_qqqq_m4000.mc16e_05oct24_CxAOD.root.567524454.567524454
user.angianni.CxAOD_VVJJ.505580.MGPy8EG_A14NNPDF23LO_HVT_Agv1_VzWW_qqqq_m4500.mc16a_05oct24_CxAOD.root.567521963.567521963
user.angianni.CxAOD_VVJJ.505580.MGPy8EG_A14NNPDF23LO_HVT_Agv1_VzWW_qqqq_m4500.mc16d_05oct24_CxAOD.root.567520741.567520741
user.angianni.CxAOD_VVJJ.505580.MGPy8EG_A14NNPDF23LO_HVT_Agv1_VzWW_qqqq_m4500.mc16e_05oct24_CxAOD.root.567521057.567521057
user.angianni.CxAOD_VVJJ.505581.MGPy8EG_A14NNPDF23LO_HVT_Agv1_VzWW_qqqq_m5000.mc16a_05oct24_CxAOD.root.567535068.567535068
user.angianni.CxAOD_VVJJ.505581.MGPy8EG_A14NNPDF23LO_HVT_Agv1_VzWW_qqqq_m5000.mc16d_05oct24_CxAOD.root.567520264.567520264
user.angianni.CxAOD_VVJJ.505581.MGPy8EG_A14NNPDF23LO_HVT_Agv1_VzWW_qqqq_m5000.mc16e_05oct24_CxAOD.root.567521008.567521008
user.angianni.CxAOD_VVJJ.505582.MGPy8EG_A14NNPDF23LO_HVT_Agv1_VcWZ_qqqq_m1000.mc16a_05oct24_CxAOD.root.567520352.567520352
user.angianni.CxAOD_VVJJ.505582.MGPy8EG_A14NNPDF23LO_HVT_Agv1_VcWZ_qqqq_m1000.mc16d_05oct24_CxAOD.root.567522701.567522701
user.angianni.CxAOD_VVJJ.505582.MGPy8EG_A14NNPDF23LO_HVT_Agv1_VcWZ_qqqq_m1000.mc16e_05oct24_CxAOD.root.567520455.567520455
user.angianni.CxAOD_VVJJ.505583.MGPy8EG_A14NNPDF23LO_HVT_Agv1_VcWZ_qqqq_m1100.mc16a_05oct24_CxAOD.root.567518452.567518452
user.angianni.CxAOD_VVJJ.505583.MGPy8EG_A14NNPDF23LO_HVT_Agv1_VcWZ_qqqq_m1100.mc16d_05oct24_CxAOD.root.567535086.567535086
user.angianni.CxAOD_VVJJ.505583.MGPy8EG_A14NNPDF23LO_HVT_Agv1_VcWZ_qqqq_m1100.mc16e_05oct24_CxAOD.root.567521026.567521026
user.angianni.CxAOD_VVJJ.505584.MGPy8EG_A14NNPDF23LO_HVT_Agv1_VcWZ_qqqq_m1200.mc16a_05oct24_CxAOD.root.567520065.567520065
user.angianni.CxAOD_VVJJ.505584.MGPy8EG_A14NNPDF23LO_HVT_Agv1_VcWZ_qqqq_m1200.mc16d_05oct24_CxAOD.root.567522032.567522032
user.angianni.CxAOD_VVJJ.505584.MGPy8EG_A14NNPDF23LO_HVT_Agv1_VcWZ_qqqq_m1200.mc16e_05oct24_CxAOD.root.567520239.567520239
user.angianni.CxAOD_VVJJ.505585.MGPy8EG_A14NNPDF23LO_HVT_Agv1_VcWZ_qqqq_m1300.mc16a_05oct24_CxAOD.root.567519729.567519729
user.angianni.CxAOD_VVJJ.505585.MGPy8EG_A14NNPDF23LO_HVT_Agv1_VcWZ_qqqq_m1300.mc16d_05oct24_CxAOD.root.567522119.567522119
user.angianni.CxAOD_VVJJ.505585.MGPy8EG_A14NNPDF23LO_HVT_Agv1_VcWZ_qqqq_m1300.mc16e_05oct24_CxAOD.root.567522723.567522723
user.angianni.CxAOD_VVJJ.505586.MGPy8EG_A14NNPDF23LO_HVT_Agv1_VcWZ_qqqq_m1400.mc16a_05oct24_CxAOD.root.567526703.567526703
user.angianni.CxAOD_VVJJ.505586.MGPy8EG_A14NNPDF23LO_HVT_Agv1_VcWZ_qqqq_m1400.mc16d_05oct24_CxAOD.root.567522761.567522761
user.angianni.CxAOD_VVJJ.505586.MGPy8EG_A14NNPDF23LO_HVT_Agv1_VcWZ_qqqq_m1400.mc16e_05oct24_CxAOD.root.567527563.567527563
user.angianni.CxAOD_VVJJ.505587.MGPy8EG_A14NNPDF23LO_HVT_Agv1_VcWZ_qqqq_m1500.mc16a_05oct24_CxAOD.root.567523142.567523142
user.angianni.CxAOD_VVJJ.505587.MGPy8EG_A14NNPDF23LO_HVT_Agv1_VcWZ_qqqq_m1500.mc16d_05oct24_CxAOD.root.567521584.567521584
user.angianni.CxAOD_VVJJ.505587.MGPy8EG_A14NNPDF23LO_HVT_Agv1_VcWZ_qqqq_m1500.mc16e_05oct24_CxAOD.root.567520286.567520286
user.angianni.CxAOD_VVJJ.505588.MGPy8EG_A14NNPDF23LO_HVT_Agv1_VcWZ_qqqq_m1600.mc16a_05oct24_CxAOD.root.567524677.567524677
user.angianni.CxAOD_VVJJ.505588.MGPy8EG_A14NNPDF23LO_HVT_Agv1_VcWZ_qqqq_m1600.mc16d_05oct24_CxAOD.root.567519754.567519754
user.angianni.CxAOD_VVJJ.505588.MGPy8EG_A14NNPDF23LO_HVT_Agv1_VcWZ_qqqq_m1600.mc16e_05oct24_CxAOD.root.567520606.567520606
user.angianni.CxAOD_VVJJ.505589.MGPy8EG_A14NNPDF23LO_HVT_Agv1_VcWZ_qqqq_m1700.mc16a_05oct24_CxAOD.root.567520128.567520128
user.angianni.CxAOD_VVJJ.505589.MGPy8EG_A14NNPDF23LO_HVT_Agv1_VcWZ_qqqq_m1700.mc16d_05oct24_CxAOD.root.567520981.567520981
user.angianni.CxAOD_VVJJ.505589.MGPy8EG_A14NNPDF23LO_HVT_Agv1_VcWZ_qqqq_m1700.mc16e_05oct24_CxAOD.root.567520355.567520355
user.angianni.CxAOD_VVJJ.505590.MGPy8EG_A14NNPDF23LO_HVT_Agv1_VcWZ_qqqq_m1800.mc16a_05oct24_CxAOD.root.567523702.567523702
user.angianni.CxAOD_VVJJ.505590.MGPy8EG_A14NNPDF23LO_HVT_Agv1_VcWZ_qqqq_m1800.mc16d_05oct24_CxAOD.root.567535100.567535100
user.angianni.CxAOD_VVJJ.505590.MGPy8EG_A14NNPDF23LO_HVT_Agv1_VcWZ_qqqq_m1800.mc16e_05oct24_CxAOD.root.567519906.567519906
user.angianni.CxAOD_VVJJ.505591.MGPy8EG_A14NNPDF23LO_HVT_Agv1_VcWZ_qqqq_m1900.mc16a_05oct24_CxAOD.root.567519334.567519334
user.angianni.CxAOD_VVJJ.505591.MGPy8EG_A14NNPDF23LO_HVT_Agv1_VcWZ_qqqq_m1900.mc16d_05oct24_CxAOD.root.567519901.567519901
user.angianni.CxAOD_VVJJ.505591.MGPy8EG_A14NNPDF23LO_HVT_Agv1_VcWZ_qqqq_m1900.mc16e_05oct24_CxAOD.root.567520752.567520752
user.angianni.CxAOD_VVJJ.505592.MGPy8EG_A14NNPDF23LO_HVT_Agv1_VcWZ_qqqq_m2000.mc16a_05oct24_CxAOD.root.567522493.567522493
user.angianni.CxAOD_VVJJ.505592.MGPy8EG_A14NNPDF23LO_HVT_Agv1_VcWZ_qqqq_m2000.mc16d_05oct24_CxAOD.root.567540277.567540277
user.angianni.CxAOD_VVJJ.505592.MGPy8EG_A14NNPDF23LO_HVT_Agv1_VcWZ_qqqq_m2000.mc16e_05oct24_CxAOD.root.567521972.567521972
user.angianni.CxAOD_VVJJ.505593.MGPy8EG_A14NNPDF23LO_HVT_Agv1_VcWZ_qqqq_m2200.mc16a_05oct24_CxAOD.root.567520637.567520637
user.angianni.CxAOD_VVJJ.505593.MGPy8EG_A14NNPDF23LO_HVT_Agv1_VcWZ_qqqq_m2200.mc16d_05oct24_CxAOD.root.567519426.567519426
user.angianni.CxAOD_VVJJ.505593.MGPy8EG_A14NNPDF23LO_HVT_Agv1_VcWZ_qqqq_m2200.mc16e_05oct24_CxAOD.root.567520925.567520925
user.angianni.CxAOD_VVJJ.505594.MGPy8EG_A14NNPDF23LO_HVT_Agv1_VcWZ_qqqq_m2400.mc16a_05oct24_CxAOD.root.567520258.567520258
user.angianni.CxAOD_VVJJ.505594.MGPy8EG_A14NNPDF23LO_HVT_Agv1_VcWZ_qqqq_m2400.mc16d_05oct24_CxAOD.root.567522096.567522096
user.angianni.CxAOD_VVJJ.505594.MGPy8EG_A14NNPDF23LO_HVT_Agv1_VcWZ_qqqq_m2400.mc16e_05oct24_CxAOD.root.567520817.567520817
user.angianni.CxAOD_VVJJ.505595.MGPy8EG_A14NNPDF23LO_HVT_Agv1_VcWZ_qqqq_m2600.mc16a_05oct24_CxAOD.root.567520037.567520037
user.angianni.CxAOD_VVJJ.505595.MGPy8EG_A14NNPDF23LO_HVT_Agv1_VcWZ_qqqq_m2600.mc16d_05oct24_CxAOD.root.567535103.567535103
user.angianni.CxAOD_VVJJ.505595.MGPy8EG_A14NNPDF23LO_HVT_Agv1_VcWZ_qqqq_m2600.mc16e_05oct24_CxAOD.root.567521058.567521058
user.angianni.CxAOD_VVJJ.505596.MGPy8EG_A14NNPDF23LO_HVT_Agv1_VcWZ_qqqq_m2800.mc16a_05oct24_CxAOD.root.567527073.567527073
user.angianni.CxAOD_VVJJ.505596.MGPy8EG_A14NNPDF23LO_HVT_Agv1_VcWZ_qqqq_m2800.mc16d_05oct24_CxAOD.root.567520103.567520103
user.angianni.CxAOD_VVJJ.505596.MGPy8EG_A14NNPDF23LO_HVT_Agv1_VcWZ_qqqq_m2800.mc16e_05oct24_CxAOD.root.567521911.567521911
user.angianni.CxAOD_VVJJ.505597.MGPy8EG_A14NNPDF23LO_HVT_Agv1_VcWZ_qqqq_m3000.mc16a_05oct24_CxAOD.root.567535074.567535074
user.angianni.CxAOD_VVJJ.505597.MGPy8EG_A14NNPDF23LO_HVT_Agv1_VcWZ_qqqq_m3000.mc16d_05oct24_CxAOD.root.567535127.567535127
user.angianni.CxAOD_VVJJ.505597.MGPy8EG_A14NNPDF23LO_HVT_Agv1_VcWZ_qqqq_m3000.mc16e_05oct24_CxAOD.root.567522231.567522231
user.angianni.CxAOD_VVJJ.505598.MGPy8EG_A14NNPDF23LO_HVT_Agv1_VcWZ_qqqq_m3500.mc16a_05oct24_CxAOD.root.567519736.567519736
user.angianni.CxAOD_VVJJ.505598.MGPy8EG_A14NNPDF23LO_HVT_Agv1_VcWZ_qqqq_m3500.mc16d_05oct24_CxAOD.root.567520181.567520181
user.angianni.CxAOD_VVJJ.505598.MGPy8EG_A14NNPDF23LO_HVT_Agv1_VcWZ_qqqq_m3500.mc16e_05oct24_CxAOD.root.567521670.567521670
user.angianni.CxAOD_VVJJ.505599.MGPy8EG_A14NNPDF23LO_HVT_Agv1_VcWZ_qqqq_m4000.mc16a_05oct24_CxAOD.root.567521205.567521205
user.angianni.CxAOD_VVJJ.505599.MGPy8EG_A14NNPDF23LO_HVT_Agv1_VcWZ_qqqq_m4000.mc16d_05oct24_CxAOD.root.567541219.567541219
user.angianni.CxAOD_VVJJ.505599.MGPy8EG_A14NNPDF23LO_HVT_Agv1_VcWZ_qqqq_m4000.mc16e_05oct24_CxAOD.root.567521111.567521111
user.angianni.CxAOD_VVJJ.505600.MGPy8EG_A14NNPDF23LO_HVT_Agv1_VcWZ_qqqq_m4500.mc16a_05oct24_CxAOD.root.567524183.567524183
user.angianni.CxAOD_VVJJ.505600.MGPy8EG_A14NNPDF23LO_HVT_Agv1_VcWZ_qqqq_m4500.mc16d_05oct24_CxAOD.root.567524025.567524025
user.angianni.CxAOD_VVJJ.505600.MGPy8EG_A14NNPDF23LO_HVT_Agv1_VcWZ_qqqq_m4500.mc16e_05oct24_CxAOD.root.567521705.567521705
user.angianni.CxAOD_VVJJ.505601.MGPy8EG_A14NNPDF23LO_HVT_Agv1_VcWZ_qqqq_m5000.mc16a_05oct24_CxAOD.root.567520059.567520059
user.angianni.CxAOD_VVJJ.505601.MGPy8EG_A14NNPDF23LO_HVT_Agv1_VcWZ_qqqq_m5000.mc16d_05oct24_CxAOD.root.567520254.567520254
user.angianni.CxAOD_VVJJ.505601.MGPy8EG_A14NNPDF23LO_HVT_Agv1_VcWZ_qqqq_m5000.mc16e_05oct24_CxAOD.root.567521479.567521479
user.angianni.CxAOD_VVJJ.513446.MGPy8EG_A14N23LO_GGF_radion_WW_qqqq_kl35L3_m1000.mc16a_05oct24_CxAOD.root.567522243.567522243
user.angianni.CxAOD_VVJJ.513446.MGPy8EG_A14N23LO_GGF_radion_WW_qqqq_kl35L3_m1000.mc16d_05oct24_CxAOD.root.567521373.567521373
user.angianni.CxAOD_VVJJ.513446.MGPy8EG_A14N23LO_GGF_radion_WW_qqqq_kl35L3_m1000.mc16e_05oct24_CxAOD.root.567520875.567520875
user.angianni.CxAOD_VVJJ.513447.MGPy8EG_A14N23LO_GGF_radion_WW_qqqq_kl35L3_m1100.mc16a_05oct24_CxAOD.root.567520161.567520161
user.angianni.CxAOD_VVJJ.513447.MGPy8EG_A14N23LO_GGF_radion_WW_qqqq_kl35L3_m1100.mc16d_05oct24_CxAOD.root.567521175.567521175
user.angianni.CxAOD_VVJJ.513447.MGPy8EG_A14N23LO_GGF_radion_WW_qqqq_kl35L3_m1100.mc16e_05oct24_CxAOD.root.567522926.567522926
user.angianni.CxAOD_VVJJ.513448.MGPy8EG_A14N23LO_GGF_radion_WW_qqqq_kl35L3_m1200.mc16a_05oct24_CxAOD.root.567519634.567519634
user.angianni.CxAOD_VVJJ.513448.MGPy8EG_A14N23LO_GGF_radion_WW_qqqq_kl35L3_m1200.mc16d_05oct24_CxAOD.root.567520135.567520135
user.angianni.CxAOD_VVJJ.513448.MGPy8EG_A14N23LO_GGF_radion_WW_qqqq_kl35L3_m1200.mc16e_05oct24_CxAOD.root.567535575.567535575
user.angianni.CxAOD_VVJJ.513449.MGPy8EG_A14N23LO_GGF_radion_WW_qqqq_kl35L3_m1300.mc16a_05oct24_CxAOD.root.567523550.567523550
user.angianni.CxAOD_VVJJ.513449.MGPy8EG_A14N23LO_GGF_radion_WW_qqqq_kl35L3_m1300.mc16d_05oct24_CxAOD.root.567521464.567521464
user.angianni.CxAOD_VVJJ.513449.MGPy8EG_A14N23LO_GGF_radion_WW_qqqq_kl35L3_m1300.mc16e_05oct24_CxAOD.root.567522619.567522619
user.angianni.CxAOD_VVJJ.513450.MGPy8EG_A14N23LO_GGF_radion_WW_qqqq_kl35L3_m1400.mc16a_05oct24_CxAOD.root.567524097.567524097
user.angianni.CxAOD_VVJJ.513450.MGPy8EG_A14N23LO_GGF_radion_WW_qqqq_kl35L3_m1400.mc16d_05oct24_CxAOD.root.567522666.567522666
user.angianni.CxAOD_VVJJ.513450.MGPy8EG_A14N23LO_GGF_radion_WW_qqqq_kl35L3_m1400.mc16e_05oct24_CxAOD.root.567521363.567521363
user.angianni.CxAOD_VVJJ.513451.MGPy8EG_A14N23LO_GGF_radion_WW_qqqq_kl35L3_m1500.mc16a_05oct24_CxAOD.root.567522532.567522532
user.angianni.CxAOD_VVJJ.513451.MGPy8EG_A14N23LO_GGF_radion_WW_qqqq_kl35L3_m1500.mc16d_05oct24_CxAOD.root.567536585.567536585
user.angianni.CxAOD_VVJJ.513451.MGPy8EG_A14N23LO_GGF_radion_WW_qqqq_kl35L3_m1500.mc16e_05oct24_CxAOD.root.567528043.567528043
user.angianni.CxAOD_VVJJ.513452.MGPy8EG_A14N23LO_GGF_radion_WW_qqqq_kl35L3_m1600.mc16a_05oct24_CxAOD.root.567520386.567520386
user.angianni.CxAOD_VVJJ.513452.MGPy8EG_A14N23LO_GGF_radion_WW_qqqq_kl35L3_m1600.mc16d_05oct24_CxAOD.root.567521023.567521023
user.angianni.CxAOD_VVJJ.513452.MGPy8EG_A14N23LO_GGF_radion_WW_qqqq_kl35L3_m1600.mc16e_05oct24_CxAOD.root.567522099.567522099
user.angianni.CxAOD_VVJJ.513453.MGPy8EG_A14N23LO_GGF_radion_WW_qqqq_kl35L3_m1700.mc16a_05oct24_CxAOD.root.567527530.567527530
user.angianni.CxAOD_VVJJ.513453.MGPy8EG_A14N23LO_GGF_radion_WW_qqqq_kl35L3_m1700.mc16d_05oct24_CxAOD.root.567522077.567522077
user.angianni.CxAOD_VVJJ.513453.MGPy8EG_A14N23LO_GGF_radion_WW_qqqq_kl35L3_m1700.mc16e_05oct24_CxAOD.root.567521852.567521852
user.angianni.CxAOD_VVJJ.513454.MGPy8EG_A14N23LO_GGF_radion_WW_qqqq_kl35L3_m1800.mc16a_05oct24_CxAOD.root.567524113.567524113
user.angianni.CxAOD_VVJJ.513454.MGPy8EG_A14N23LO_GGF_radion_WW_qqqq_kl35L3_m1800.mc16d_05oct24_CxAOD.root.567521769.567521769
user.angianni.CxAOD_VVJJ.513454.MGPy8EG_A14N23LO_GGF_radion_WW_qqqq_kl35L3_m1800.mc16e_05oct24_CxAOD.root.567523707.567523707
user.angianni.CxAOD_VVJJ.513455.MGPy8EG_A14N23LO_GGF_radion_WW_qqqq_kl35L3_m1900.mc16a_05oct24_CxAOD.root.567523987.567523987
user.angianni.CxAOD_VVJJ.513455.MGPy8EG_A14N23LO_GGF_radion_WW_qqqq_kl35L3_m1900.mc16d_05oct24_CxAOD.root.567519838.567519838
user.angianni.CxAOD_VVJJ.513455.MGPy8EG_A14N23LO_GGF_radion_WW_qqqq_kl35L3_m1900.mc16e_05oct24_CxAOD.root.567522920.567522920
user.angianni.CxAOD_VVJJ.513456.MGPy8EG_A14N23LO_GGF_radion_WW_qqqq_kl35L3_m2000.mc16a_05oct24_CxAOD.root.567525414.567525414
user.angianni.CxAOD_VVJJ.513456.MGPy8EG_A14N23LO_GGF_radion_WW_qqqq_kl35L3_m2000.mc16d_05oct24_CxAOD.root.567522535.567522535
user.angianni.CxAOD_VVJJ.513456.MGPy8EG_A14N23LO_GGF_radion_WW_qqqq_kl35L3_m2000.mc16e_05oct24_CxAOD.root.567524077.567524077
user.angianni.CxAOD_VVJJ.513457.MGPy8EG_A14N23LO_GGF_radion_WW_qqqq_kl35L3_m2200.mc16a_05oct24_CxAOD.root.567526063.567526063
user.angianni.CxAOD_VVJJ.513457.MGPy8EG_A14N23LO_GGF_radion_WW_qqqq_kl35L3_m2200.mc16d_05oct24_CxAOD.root.567520669.567520669
user.angianni.CxAOD_VVJJ.513457.MGPy8EG_A14N23LO_GGF_radion_WW_qqqq_kl35L3_m2200.mc16e_05oct24_CxAOD.root.567523321.567523321
user.angianni.CxAOD_VVJJ.513458.MGPy8EG_A14N23LO_GGF_radion_WW_qqqq_kl35L3_m2400.mc16a_05oct24_CxAOD.root.567521961.567521961
user.angianni.CxAOD_VVJJ.513458.MGPy8EG_A14N23LO_GGF_radion_WW_qqqq_kl35L3_m2400.mc16d_05oct24_CxAOD.root.567522923.567522923
user.angianni.CxAOD_VVJJ.513458.MGPy8EG_A14N23LO_GGF_radion_WW_qqqq_kl35L3_m2400.mc16e_05oct24_CxAOD.root.567523154.567523154
user.angianni.CxAOD_VVJJ.513459.MGPy8EG_A14N23LO_GGF_radion_WW_qqqq_kl35L3_m2600.mc16a_05oct24_CxAOD.root.567520164.567520164
user.angianni.CxAOD_VVJJ.513459.MGPy8EG_A14N23LO_GGF_radion_WW_qqqq_kl35L3_m2600.mc16a_05oct24_CxAOD.root.567523194.567523194
user.angianni.CxAOD_VVJJ.513459.MGPy8EG_A14N23LO_GGF_radion_WW_qqqq_kl35L3_m2600.mc16d_05oct24_CxAOD.root.567521894.567521894
user.angianni.CxAOD_VVJJ.513459.MGPy8EG_A14N23LO_GGF_radion_WW_qqqq_kl35L3_m2600.mc16e_05oct24_CxAOD.root.567522051.567522051
user.angianni.CxAOD_VVJJ.513460.MGPy8EG_A14N23LO_GGF_radion_WW_qqqq_kl35L3_m2800.mc16a_05oct24_CxAOD.root.567522024.567522024
user.angianni.CxAOD_VVJJ.513460.MGPy8EG_A14N23LO_GGF_radion_WW_qqqq_kl35L3_m2800.mc16d_05oct24_CxAOD.root.567520769.567520769
user.angianni.CxAOD_VVJJ.513460.MGPy8EG_A14N23LO_GGF_radion_WW_qqqq_kl35L3_m2800.mc16e_05oct24_CxAOD.root.567522116.567522116
user.angianni.CxAOD_VVJJ.513461.MGPy8EG_A14N23LO_GGF_radion_WW_qqqq_kl35L3_m3000.mc16a_05oct24_CxAOD.root.567522246.567522246
user.angianni.CxAOD_VVJJ.513461.MGPy8EG_A14N23LO_GGF_radion_WW_qqqq_kl35L3_m3000.mc16d_05oct24_CxAOD.root.567522093.567522093
user.angianni.CxAOD_VVJJ.513461.MGPy8EG_A14N23LO_GGF_radion_WW_qqqq_kl35L3_m3000.mc16e_05oct24_CxAOD.root.567521169.567521169
user.angianni.CxAOD_VVJJ.513462.MGPy8EG_A14N23LO_GGF_radion_WW_qqqq_kl35L3_m3500.mc16a_05oct24_CxAOD.root.567519780.567519780
user.angianni.CxAOD_VVJJ.513462.MGPy8EG_A14N23LO_GGF_radion_WW_qqqq_kl35L3_m3500.mc16d_05oct24_CxAOD.root.567520042.567520042
user.angianni.CxAOD_VVJJ.513462.MGPy8EG_A14N23LO_GGF_radion_WW_qqqq_kl35L3_m3500.mc16e_05oct24_CxAOD.root.567520706.567520706
user.angianni.CxAOD_VVJJ.513463.MGPy8EG_A14N23LO_GGF_radion_WW_qqqq_kl35L3_m4000.mc16a_05oct24_CxAOD.root.567520686.567520686
user.angianni.CxAOD_VVJJ.513463.MGPy8EG_A14N23LO_GGF_radion_WW_qqqq_kl35L3_m4000.mc16d_05oct24_CxAOD.root.567519777.567519777
user.angianni.CxAOD_VVJJ.513463.MGPy8EG_A14N23LO_GGF_radion_WW_qqqq_kl35L3_m4000.mc16e_05oct24_CxAOD.root.567523132.567523132
user.angianni.CxAOD_VVJJ.513464.MGPy8EG_A14N23LO_GGF_radion_WW_qqqq_kl35L3_m4500.mc16a_05oct24_CxAOD.root.567524429.567524429
user.angianni.CxAOD_VVJJ.513464.MGPy8EG_A14N23LO_GGF_radion_WW_qqqq_kl35L3_m4500.mc16d_05oct24_CxAOD.root.567527184.567527184
user.angianni.CxAOD_VVJJ.513464.MGPy8EG_A14N23LO_GGF_radion_WW_qqqq_kl35L3_m4500.mc16e_05oct24_CxAOD.root.567521644.567521644
user.angianni.CxAOD_VVJJ.513464.MGPy8EG_A14N23LO_GGF_radion_WW_qqqq_kl35L3_m4500.mc16e_05oct24_CxAOD.root.567522269.567522269
user.angianni.CxAOD_VVJJ.513465.MGPy8EG_A14N23LO_GGF_radion_WW_qqqq_kl35L3_m5000.mc16a_05oct24_CxAOD.root.567521128.567521128
user.angianni.CxAOD_VVJJ.513465.MGPy8EG_A14N23LO_GGF_radion_WW_qqqq_kl35L3_m5000.mc16d_05oct24_CxAOD.root.567520034.567520034
user.angianni.CxAOD_VVJJ.513465.MGPy8EG_A14N23LO_GGF_radion_WW_qqqq_kl35L3_m5000.mc16e_05oct24_CxAOD.root.567530504.567530504
user.angianni.CxAOD_VVJJ.513466.MGPy8EG_A14N23LO_GGF_radion_ZZ_qqqq_kl35L3_m1000.mc16a_05oct24_CxAOD.root.567520861.567520861
user.angianni.CxAOD_VVJJ.513466.MGPy8EG_A14N23LO_GGF_radion_ZZ_qqqq_kl35L3_m1000.mc16d_05oct24_CxAOD.root.567521628.567521628
user.angianni.CxAOD_VVJJ.513466.MGPy8EG_A14N23LO_GGF_radion_ZZ_qqqq_kl35L3_m1000.mc16e_05oct24_CxAOD.root.567521117.567521117
user.angianni.CxAOD_VVJJ.513467.MGPy8EG_A14N23LO_GGF_radion_ZZ_qqqq_kl35L3_m1100.mc16a_05oct24_CxAOD.root.567521885.567521885
user.angianni.CxAOD_VVJJ.513467.MGPy8EG_A14N23LO_GGF_radion_ZZ_qqqq_kl35L3_m1100.mc16d_05oct24_CxAOD.root.567522594.567522594
user.angianni.CxAOD_VVJJ.513467.MGPy8EG_A14N23LO_GGF_radion_ZZ_qqqq_kl35L3_m1100.mc16e_05oct24_CxAOD.root.567523148.567523148
user.angianni.CxAOD_VVJJ.513468.MGPy8EG_A14N23LO_GGF_radion_ZZ_qqqq_kl35L3_m1200.mc16a_05oct24_CxAOD.root.567520490.567520490
user.angianni.CxAOD_VVJJ.513468.MGPy8EG_A14N23LO_GGF_radion_ZZ_qqqq_kl35L3_m1200.mc16d_05oct24_CxAOD.root.567520695.567520695
user.angianni.CxAOD_VVJJ.513468.MGPy8EG_A14N23LO_GGF_radion_ZZ_qqqq_kl35L3_m1200.mc16e_05oct24_CxAOD.root.567523756.567523756
user.angianni.CxAOD_VVJJ.513469.MGPy8EG_A14N23LO_GGF_radion_ZZ_qqqq_kl35L3_m1300.mc16a_05oct24_CxAOD.root.567522726.567522726
user.angianni.CxAOD_VVJJ.513469.MGPy8EG_A14N23LO_GGF_radion_ZZ_qqqq_kl35L3_m1300.mc16d_05oct24_CxAOD.root.567521248.567521248
user.angianni.CxAOD_VVJJ.513469.MGPy8EG_A14N23LO_GGF_radion_ZZ_qqqq_kl35L3_m1300.mc16e_05oct24_CxAOD.root.567520999.567520999
user.angianni.CxAOD_VVJJ.513470.MGPy8EG_A14N23LO_GGF_radion_ZZ_qqqq_kl35L3_m1400.mc16a_05oct24_CxAOD.root.567525626.567525626
user.angianni.CxAOD_VVJJ.513470.MGPy8EG_A14N23LO_GGF_radion_ZZ_qqqq_kl35L3_m1400.mc16d_05oct24_CxAOD.root.567521942.567521942
user.angianni.CxAOD_VVJJ.513470.MGPy8EG_A14N23LO_GGF_radion_ZZ_qqqq_kl35L3_m1400.mc16e_05oct24_CxAOD.root.567521665.567521665
user.angianni.CxAOD_VVJJ.513471.MGPy8EG_A14N23LO_GGF_radion_ZZ_qqqq_kl35L3_m1500.mc16a_05oct24_CxAOD.root.567523507.567523507
user.angianni.CxAOD_VVJJ.513471.MGPy8EG_A14N23LO_GGF_radion_ZZ_qqqq_kl35L3_m1500.mc16d_05oct24_CxAOD.root.567521562.567521562
user.angianni.CxAOD_VVJJ.513471.MGPy8EG_A14N23LO_GGF_radion_ZZ_qqqq_kl35L3_m1500.mc16e_05oct24_CxAOD.root.567522292.567522292
user.angianni.CxAOD_VVJJ.513472.MGPy8EG_A14N23LO_GGF_radion_ZZ_qqqq_kl35L3_m1600.mc16a_05oct24_CxAOD.root.567522234.567522234
user.angianni.CxAOD_VVJJ.513472.MGPy8EG_A14N23LO_GGF_radion_ZZ_qqqq_kl35L3_m1600.mc16d_05oct24_CxAOD.root.567520984.567520984
user.angianni.CxAOD_VVJJ.513472.MGPy8EG_A14N23LO_GGF_radion_ZZ_qqqq_kl35L3_m1600.mc16e_05oct24_CxAOD.root.567521461.567521461
user.angianni.CxAOD_VVJJ.513473.MGPy8EG_A14N23LO_GGF_radion_ZZ_qqqq_kl35L3_m1700.mc16a_05oct24_CxAOD.root.567519554.567519554
user.angianni.CxAOD_VVJJ.513473.MGPy8EG_A14N23LO_GGF_radion_ZZ_qqqq_kl35L3_m1700.mc16a_05oct24_CxAOD.root.567522169.567522169
user.angianni.CxAOD_VVJJ.513473.MGPy8EG_A14N23LO_GGF_radion_ZZ_qqqq_kl35L3_m1700.mc16d_05oct24_CxAOD.root.567520106.567520106
user.angianni.CxAOD_VVJJ.513473.MGPy8EG_A14N23LO_GGF_radion_ZZ_qqqq_kl35L3_m1700.mc16e_05oct24_CxAOD.root.567522685.567522685
user.angianni.CxAOD_VVJJ.513474.MGPy8EG_A14N23LO_GGF_radion_ZZ_qqqq_kl35L3_m1800.mc16a_05oct24_CxAOD.root.567520749.567520749
user.angianni.CxAOD_VVJJ.513474.MGPy8EG_A14N23LO_GGF_radion_ZZ_qqqq_kl35L3_m1800.mc16d_05oct24_CxAOD.root.567522012.567522012
user.angianni.CxAOD_VVJJ.513474.MGPy8EG_A14N23LO_GGF_radion_ZZ_qqqq_kl35L3_m1800.mc16e_05oct24_CxAOD.root.567528086.567528086
user.angianni.CxAOD_VVJJ.513475.MGPy8EG_A14N23LO_GGF_radion_ZZ_qqqq_kl35L3_m1900.mc16a_05oct24_CxAOD.root.567521731.567521731
user.angianni.CxAOD_VVJJ.513475.MGPy8EG_A14N23LO_GGF_radion_ZZ_qqqq_kl35L3_m1900.mc16d_05oct24_CxAOD.root.567521340.567521340
user.angianni.CxAOD_VVJJ.513475.MGPy8EG_A14N23LO_GGF_radion_ZZ_qqqq_kl35L3_m1900.mc16e_05oct24_CxAOD.root.567521174.567521174
user.angianni.CxAOD_VVJJ.513476.MGPy8EG_A14N23LO_GGF_radion_ZZ_qqqq_kl35L3_m2000.mc16a_05oct24_CxAOD.root.567524459.567524459
user.angianni.CxAOD_VVJJ.513476.MGPy8EG_A14N23LO_GGF_radion_ZZ_qqqq_kl35L3_m2000.mc16d_05oct24_CxAOD.root.567523944.567523944
user.angianni.CxAOD_VVJJ.513476.MGPy8EG_A14N23LO_GGF_radion_ZZ_qqqq_kl35L3_m2000.mc16e_05oct24_CxAOD.root.567523545.567523545
user.angianni.CxAOD_VVJJ.513477.MGPy8EG_A14N23LO_GGF_radion_ZZ_qqqq_kl35L3_m2200.mc16a_05oct24_CxAOD.root.567523801.567523801
user.angianni.CxAOD_VVJJ.513477.MGPy8EG_A14N23LO_GGF_radion_ZZ_qqqq_kl35L3_m2200.mc16d_05oct24_CxAOD.root.567526335.567526335
user.angianni.CxAOD_VVJJ.513477.MGPy8EG_A14N23LO_GGF_radion_ZZ_qqqq_kl35L3_m2200.mc16e_05oct24_CxAOD.root.567520673.567520673
user.angianni.CxAOD_VVJJ.513478.MGPy8EG_A14N23LO_GGF_radion_ZZ_qqqq_kl35L3_m2400.mc16a_05oct24_CxAOD.root.567523811.567523811
user.angianni.CxAOD_VVJJ.513478.MGPy8EG_A14N23LO_GGF_radion_ZZ_qqqq_kl35L3_m2400.mc16d_05oct24_CxAOD.root.567521467.567521467
user.angianni.CxAOD_VVJJ.513478.MGPy8EG_A14N23LO_GGF_radion_ZZ_qqqq_kl35L3_m2400.mc16e_05oct24_CxAOD.root.567520579.567520579
user.angianni.CxAOD_VVJJ.513479.MGPy8EG_A14N23LO_GGF_radion_ZZ_qqqq_kl35L3_m2600.mc16a_05oct24_CxAOD.root.567521428.567521428
user.angianni.CxAOD_VVJJ.513479.MGPy8EG_A14N23LO_GGF_radion_ZZ_qqqq_kl35L3_m2600.mc16d_05oct24_CxAOD.root.567522490.567522490
user.angianni.CxAOD_VVJJ.513479.MGPy8EG_A14N23LO_GGF_radion_ZZ_qqqq_kl35L3_m2600.mc16e_05oct24_CxAOD.root.567522027.567522027
user.angianni.CxAOD_VVJJ.513480.MGPy8EG_A14N23LO_GGF_radion_ZZ_qqqq_kl35L3_m2800.mc16a_05oct24_CxAOD.root.567521871.567521871
user.angianni.CxAOD_VVJJ.513480.MGPy8EG_A14N23LO_GGF_radion_ZZ_qqqq_kl35L3_m2800.mc16d_05oct24_CxAOD.root.567521238.567521238
user.angianni.CxAOD_VVJJ.513480.MGPy8EG_A14N23LO_GGF_radion_ZZ_qqqq_kl35L3_m2800.mc16e_05oct24_CxAOD.root.567522424.567522424
user.angianni.CxAOD_VVJJ.513481.MGPy8EG_A14N23LO_GGF_radion_ZZ_qqqq_kl35L3_m3000.mc16a_05oct24_CxAOD.root.567522838.567522838
user.angianni.CxAOD_VVJJ.513481.MGPy8EG_A14N23LO_GGF_radion_ZZ_qqqq_kl35L3_m3000.mc16d_05oct24_CxAOD.root.567520595.567520595
user.angianni.CxAOD_VVJJ.513481.MGPy8EG_A14N23LO_GGF_radion_ZZ_qqqq_kl35L3_m3000.mc16e_05oct24_CxAOD.root.567524857.567524857
user.angianni.CxAOD_VVJJ.513482.MGPy8EG_A14N23LO_GGF_radion_ZZ_qqqq_kl35L3_m3500.mc16a_05oct24_CxAOD.root.567524444.567524444
user.angianni.CxAOD_VVJJ.513482.MGPy8EG_A14N23LO_GGF_radion_ZZ_qqqq_kl35L3_m3500.mc16d_05oct24_CxAOD.root.567520494.567520494
user.angianni.CxAOD_VVJJ.513482.MGPy8EG_A14N23LO_GGF_radion_ZZ_qqqq_kl35L3_m3500.mc16e_05oct24_CxAOD.root.567522656.567522656
user.angianni.CxAOD_VVJJ.513483.MGPy8EG_A14N23LO_GGF_radion_ZZ_qqqq_kl35L3_m4000.mc16a_05oct24_CxAOD.root.567521897.567521897
user.angianni.CxAOD_VVJJ.513483.MGPy8EG_A14N23LO_GGF_radion_ZZ_qqqq_kl35L3_m4000.mc16d_05oct24_CxAOD.root.567522054.567522054
user.angianni.CxAOD_VVJJ.513483.MGPy8EG_A14N23LO_GGF_radion_ZZ_qqqq_kl35L3_m4000.mc16e_05oct24_CxAOD.root.567524612.567524612
user.angianni.CxAOD_VVJJ.513484.MGPy8EG_A14N23LO_GGF_radion_ZZ_qqqq_kl35L3_m4500.mc16a_05oct24_CxAOD.root.567541687.567541687
user.angianni.CxAOD_VVJJ.513484.MGPy8EG_A14N23LO_GGF_radion_ZZ_qqqq_kl35L3_m4500.mc16d_05oct24_CxAOD.root.567519821.567519821
user.angianni.CxAOD_VVJJ.513484.MGPy8EG_A14N23LO_GGF_radion_ZZ_qqqq_kl35L3_m4500.mc16e_05oct24_CxAOD.root.567521233.567521233
user.angianni.CxAOD_VVJJ.513485.MGPy8EG_A14N23LO_GGF_radion_ZZ_qqqq_kl35L3_m5000.mc16a_05oct24_CxAOD.root.567521932.567521932
user.angianni.CxAOD_VVJJ.513485.MGPy8EG_A14N23LO_GGF_radion_ZZ_qqqq_kl35L3_m5000.mc16d_05oct24_CxAOD.root.567520603.567520603
user.angianni.CxAOD_VVJJ.513485.MGPy8EG_A14N23LO_GGF_radion_ZZ_qqqq_kl35L3_m5000.mc16e_05oct24_CxAOD.root.567520955.567520955
user.angianni.CxAOD_VVJJ.513486.MGPy8EG_A14NNPDF23LO_RS_G_WW_qqqq_c10_m1000.mc16a_05oct24_CxAOD.root.567521044.567521044
user.angianni.CxAOD_VVJJ.513486.MGPy8EG_A14NNPDF23LO_RS_G_WW_qqqq_c10_m1000.mc16d_05oct24_CxAOD.root.567521293.567521293
user.angianni.CxAOD_VVJJ.513486.MGPy8EG_A14NNPDF23LO_RS_G_WW_qqqq_c10_m1000.mc16e_05oct24_CxAOD.root.567521431.567521431
user.angianni.CxAOD_VVJJ.513487.MGPy8EG_A14NNPDF23LO_RS_G_WW_qqqq_c10_m1100.mc16a_05oct24_CxAOD.root.567524234.567524234
user.angianni.CxAOD_VVJJ.513487.MGPy8EG_A14NNPDF23LO_RS_G_WW_qqqq_c10_m1100.mc16d_05oct24_CxAOD.root.567523032.567523032
user.angianni.CxAOD_VVJJ.513487.MGPy8EG_A14NNPDF23LO_RS_G_WW_qqqq_c10_m1100.mc16e_05oct24_CxAOD.root.567522720.567522720
user.angianni.CxAOD_VVJJ.513488.MGPy8EG_A14NNPDF23LO_RS_G_WW_qqqq_c10_m1200.mc16a_05oct24_CxAOD.root.567523268.567523268
user.angianni.CxAOD_VVJJ.513488.MGPy8EG_A14NNPDF23LO_RS_G_WW_qqqq_c10_m1200.mc16d_05oct24_CxAOD.root.567523151.567523151
user.angianni.CxAOD_VVJJ.513488.MGPy8EG_A14NNPDF23LO_RS_G_WW_qqqq_c10_m1200.mc16e_05oct24_CxAOD.root.567523465.567523465
user.angianni.CxAOD_VVJJ.513489.MGPy8EG_A14NNPDF23LO_RS_G_WW_qqqq_c10_m1300.mc16a_05oct24_CxAOD.root.567526920.567526920
user.angianni.CxAOD_VVJJ.513489.MGPy8EG_A14NNPDF23LO_RS_G_WW_qqqq_c10_m1300.mc16d_05oct24_CxAOD.root.567520293.567520293
user.angianni.CxAOD_VVJJ.513489.MGPy8EG_A14NNPDF23LO_RS_G_WW_qqqq_c10_m1300.mc16e_05oct24_CxAOD.root.567521728.567521728
user.angianni.CxAOD_VVJJ.513490.MGPy8EG_A14NNPDF23LO_RS_G_WW_qqqq_c10_m1400.mc16a_05oct24_CxAOD.root.567523699.567523699
user.angianni.CxAOD_VVJJ.513490.MGPy8EG_A14NNPDF23LO_RS_G_WW_qqqq_c10_m1400.mc16d_05oct24_CxAOD.root.567519651.567519651
user.angianni.CxAOD_VVJJ.513490.MGPy8EG_A14NNPDF23LO_RS_G_WW_qqqq_c10_m1400.mc16e_05oct24_CxAOD.root.567523112.567523112
user.angianni.CxAOD_VVJJ.513491.MGPy8EG_A14NNPDF23LO_RS_G_WW_qqqq_c10_m1500.mc16a_05oct24_CxAOD.root.567524309.567524309
user.angianni.CxAOD_VVJJ.513491.MGPy8EG_A14NNPDF23LO_RS_G_WW_qqqq_c10_m1500.mc16d_05oct24_CxAOD.root.567521204.567521204
user.angianni.CxAOD_VVJJ.513491.MGPy8EG_A14NNPDF23LO_RS_G_WW_qqqq_c10_m1500.mc16e_05oct24_CxAOD.root.567523394.567523394
user.angianni.CxAOD_VVJJ.513492.MGPy8EG_A14NNPDF23LO_RS_G_WW_qqqq_c10_m1600.mc16a_05oct24_CxAOD.root.567526379.567526379
user.angianni.CxAOD_VVJJ.513492.MGPy8EG_A14NNPDF23LO_RS_G_WW_qqqq_c10_m1600.mc16d_05oct24_CxAOD.root.567520928.567520928
user.angianni.CxAOD_VVJJ.513492.MGPy8EG_A14NNPDF23LO_RS_G_WW_qqqq_c10_m1600.mc16e_05oct24_CxAOD.root.567523775.567523775
user.angianni.CxAOD_VVJJ.513493.MGPy8EG_A14NNPDF23LO_RS_G_WW_qqqq_c10_m1700.mc16a_05oct24_CxAOD.root.567521290.567521290
user.angianni.CxAOD_VVJJ.513493.MGPy8EG_A14NNPDF23LO_RS_G_WW_qqqq_c10_m1700.mc16d_05oct24_CxAOD.root.567520838.567520838
user.angianni.CxAOD_VVJJ.513493.MGPy8EG_A14NNPDF23LO_RS_G_WW_qqqq_c10_m1700.mc16e_05oct24_CxAOD.root.567520888.567520888
user.angianni.CxAOD_VVJJ.513494.MGPy8EG_A14NNPDF23LO_RS_G_WW_qqqq_c10_m1800.mc16a_05oct24_CxAOD.root.567544626.567544626
user.angianni.CxAOD_VVJJ.513494.MGPy8EG_A14NNPDF23LO_RS_G_WW_qqqq_c10_m1800.mc16d_05oct24_CxAOD.root.567522599.567522599
user.angianni.CxAOD_VVJJ.513494.MGPy8EG_A14NNPDF23LO_RS_G_WW_qqqq_c10_m1800.mc16e_05oct24_CxAOD.root.567521578.567521578
user.angianni.CxAOD_VVJJ.513495.MGPy8EG_A14NNPDF23LO_RS_G_WW_qqqq_c10_m1900.mc16a_05oct24_CxAOD.root.567520530.567520530
user.angianni.CxAOD_VVJJ.513495.MGPy8EG_A14NNPDF23LO_RS_G_WW_qqqq_c10_m1900.mc16d_05oct24_CxAOD.root.567520892.567520892
user.angianni.CxAOD_VVJJ.513495.MGPy8EG_A14NNPDF23LO_RS_G_WW_qqqq_c10_m1900.mc16e_05oct24_CxAOD.root.567522336.567522336
user.angianni.CxAOD_VVJJ.513496.MGPy8EG_A14NNPDF23LO_RS_G_WW_qqqq_c10_m2000.mc16a_05oct24_CxAOD.root.567521520.567521520
user.angianni.CxAOD_VVJJ.513496.MGPy8EG_A14NNPDF23LO_RS_G_WW_qqqq_c10_m2000.mc16d_05oct24_CxAOD.root.567521245.567521245
user.angianni.CxAOD_VVJJ.513496.MGPy8EG_A14NNPDF23LO_RS_G_WW_qqqq_c10_m2000.mc16e_05oct24_CxAOD.root.567521761.567521761
user.angianni.CxAOD_VVJJ.513497.MGPy8EG_A14NNPDF23LO_RS_G_WW_qqqq_c10_m2200.mc16a_05oct24_CxAOD.root.567523510.567523510
user.angianni.CxAOD_VVJJ.513497.MGPy8EG_A14NNPDF23LO_RS_G_WW_qqqq_c10_m2200.mc16d_05oct24_CxAOD.root.567520168.567520168
user.angianni.CxAOD_VVJJ.513497.MGPy8EG_A14NNPDF23LO_RS_G_WW_qqqq_c10_m2200.mc16e_05oct24_CxAOD.root.567521776.567521776
user.angianni.CxAOD_VVJJ.513498.MGPy8EG_A14NNPDF23LO_RS_G_WW_qqqq_c10_m2400.mc16a_05oct24_CxAOD.root.567524669.567524669
user.angianni.CxAOD_VVJJ.513498.MGPy8EG_A14NNPDF23LO_RS_G_WW_qqqq_c10_m2400.mc16d_05oct24_CxAOD.root.567522364.567522364
user.angianni.CxAOD_VVJJ.513498.MGPy8EG_A14NNPDF23LO_RS_G_WW_qqqq_c10_m2400.mc16e_05oct24_CxAOD.root.567522384.567522384
user.angianni.CxAOD_VVJJ.513499.MGPy8EG_A14NNPDF23LO_RS_G_WW_qqqq_c10_m2600.mc16a_05oct24_CxAOD.root.567522324.567522324
user.angianni.CxAOD_VVJJ.513499.MGPy8EG_A14NNPDF23LO_RS_G_WW_qqqq_c10_m2600.mc16d_05oct24_CxAOD.root.567526569.567526569
user.angianni.CxAOD_VVJJ.513499.MGPy8EG_A14NNPDF23LO_RS_G_WW_qqqq_c10_m2600.mc16e_05oct24_CxAOD.root.567522729.567522729
user.angianni.CxAOD_VVJJ.513500.MGPy8EG_A14NNPDF23LO_RS_G_WW_qqqq_c10_m2800.mc16a_05oct24_CxAOD.root.567520895.567520895
user.angianni.CxAOD_VVJJ.513500.MGPy8EG_A14NNPDF23LO_RS_G_WW_qqqq_c10_m2800.mc16d_05oct24_CxAOD.root.567521419.567521419
user.angianni.CxAOD_VVJJ.513500.MGPy8EG_A14NNPDF23LO_RS_G_WW_qqqq_c10_m2800.mc16e_05oct24_CxAOD.root.567523177.567523177
user.angianni.CxAOD_VVJJ.513501.MGPy8EG_A14NNPDF23LO_RS_G_WW_qqqq_c10_m3000.mc16a_05oct24_CxAOD.root.567522009.567522009
user.angianni.CxAOD_VVJJ.513501.MGPy8EG_A14NNPDF23LO_RS_G_WW_qqqq_c10_m3000.mc16d_05oct24_CxAOD.root.567522556.567522556
user.angianni.CxAOD_VVJJ.513501.MGPy8EG_A14NNPDF23LO_RS_G_WW_qqqq_c10_m3000.mc16e_05oct24_CxAOD.root.567521984.567521984
user.angianni.CxAOD_VVJJ.513502.MGPy8EG_A14NNPDF23LO_RS_G_WW_qqqq_c10_m3500.mc16a_05oct24_CxAOD.root.567521999.567521999
user.angianni.CxAOD_VVJJ.513502.MGPy8EG_A14NNPDF23LO_RS_G_WW_qqqq_c10_m3500.mc16d_05oct24_CxAOD.root.567521564.567521564
user.angianni.CxAOD_VVJJ.513502.MGPy8EG_A14NNPDF23LO_RS_G_WW_qqqq_c10_m3500.mc16e_05oct24_CxAOD.root.567524971.567524971
user.angianni.CxAOD_VVJJ.513503.MGPy8EG_A14NNPDF23LO_RS_G_WW_qqqq_c10_m4000.mc16a_05oct24_CxAOD.root.567521661.567521661
user.angianni.CxAOD_VVJJ.513503.MGPy8EG_A14NNPDF23LO_RS_G_WW_qqqq_c10_m4000.mc16d_05oct24_CxAOD.root.567522907.567522907
user.angianni.CxAOD_VVJJ.513503.MGPy8EG_A14NNPDF23LO_RS_G_WW_qqqq_c10_m4000.mc16e_05oct24_CxAOD.root.567523105.567523105
user.angianni.CxAOD_VVJJ.513504.MGPy8EG_A14NNPDF23LO_RS_G_WW_qqqq_c10_m4500.mc16a_05oct24_CxAOD.root.567521131.567521131
user.angianni.CxAOD_VVJJ.513504.MGPy8EG_A14NNPDF23LO_RS_G_WW_qqqq_c10_m4500.mc16d_05oct24_CxAOD.root.567521593.567521593
user.angianni.CxAOD_VVJJ.513504.MGPy8EG_A14NNPDF23LO_RS_G_WW_qqqq_c10_m4500.mc16e_05oct24_CxAOD.root.567522517.567522517
user.angianni.CxAOD_VVJJ.513505.MGPy8EG_A14NNPDF23LO_RS_G_WW_qqqq_c10_m5000.mc16a_05oct24_CxAOD.root.567524817.567524817
user.angianni.CxAOD_VVJJ.513505.MGPy8EG_A14NNPDF23LO_RS_G_WW_qqqq_c10_m5000.mc16d_05oct24_CxAOD.root.567520709.567520709
user.angianni.CxAOD_VVJJ.513505.MGPy8EG_A14NNPDF23LO_RS_G_WW_qqqq_c10_m5000.mc16e_05oct24_CxAOD.root.567521975.567521975
user.angianni.CxAOD_VVJJ.513506.MGPy8EG_A14NNPDF23LO_RS_G_ZZ_qqqq_c10_m1000.mc16a_05oct24_CxAOD.root.567520670.567520670
user.angianni.CxAOD_VVJJ.513506.MGPy8EG_A14NNPDF23LO_RS_G_ZZ_qqqq_c10_m1000.mc16d_05oct24_CxAOD.root.567520678.567520678
user.angianni.CxAOD_VVJJ.513506.MGPy8EG_A14NNPDF23LO_RS_G_ZZ_qqqq_c10_m1000.mc16e_05oct24_CxAOD.root.567522470.567522470
user.angianni.CxAOD_VVJJ.513507.MGPy8EG_A14NNPDF23LO_RS_G_ZZ_qqqq_c10_m1100.mc16a_05oct24_CxAOD.root.567524289.567524289
user.angianni.CxAOD_VVJJ.513507.MGPy8EG_A14NNPDF23LO_RS_G_ZZ_qqqq_c10_m1100.mc16d_05oct24_CxAOD.root.567522781.567522781
user.angianni.CxAOD_VVJJ.513507.MGPy8EG_A14NNPDF23LO_RS_G_ZZ_qqqq_c10_m1100.mc16e_05oct24_CxAOD.root.567522367.567522367
user.angianni.CxAOD_VVJJ.513508.MGPy8EG_A14NNPDF23LO_RS_G_ZZ_qqqq_c10_m1200.mc16a_05oct24_CxAOD.root.567521156.567521156
user.angianni.CxAOD_VVJJ.513508.MGPy8EG_A14NNPDF23LO_RS_G_ZZ_qqqq_c10_m1200.mc16d_05oct24_CxAOD.root.567523039.567523039
user.angianni.CxAOD_VVJJ.513508.MGPy8EG_A14NNPDF23LO_RS_G_ZZ_qqqq_c10_m1200.mc16e_05oct24_CxAOD.root.567524116.567524116
user.angianni.CxAOD_VVJJ.513509.MGPy8EG_A14NNPDF23LO_RS_G_ZZ_qqqq_c10_m1300.mc16a_05oct24_CxAOD.root.567523776.567523776
user.angianni.CxAOD_VVJJ.513509.MGPy8EG_A14NNPDF23LO_RS_G_ZZ_qqqq_c10_m1300.mc16d_05oct24_CxAOD.root.567520681.567520681
user.angianni.CxAOD_VVJJ.513509.MGPy8EG_A14NNPDF23LO_RS_G_ZZ_qqqq_c10_m1300.mc16e_05oct24_CxAOD.root.567521634.567521634
user.angianni.CxAOD_VVJJ.513510.MGPy8EG_A14NNPDF23LO_RS_G_ZZ_qqqq_c10_m1400.mc16a_05oct24_CxAOD.root.567522673.567522673
user.angianni.CxAOD_VVJJ.513510.MGPy8EG_A14NNPDF23LO_RS_G_ZZ_qqqq_c10_m1400.mc16d_05oct24_CxAOD.root.567521559.567521559
user.angianni.CxAOD_VVJJ.513510.MGPy8EG_A14NNPDF23LO_RS_G_ZZ_qqqq_c10_m1400.mc16e_05oct24_CxAOD.root.567523145.567523145
user.angianni.CxAOD_VVJJ.513510.MGPy8EG_A14NNPDF23LO_RS_G_ZZ_qqqq_c10_m1400.mc16e_05oct24_CxAOD.root.567527608.567527608
user.angianni.CxAOD_VVJJ.513511.MGPy8EG_A14NNPDF23LO_RS_G_ZZ_qqqq_c10_m1500.mc16a_05oct24_CxAOD.root.567519739.567519739
user.angianni.CxAOD_VVJJ.513511.MGPy8EG_A14NNPDF23LO_RS_G_ZZ_qqqq_c10_m1500.mc16d_05oct24_CxAOD.root.567521416.567521416
user.angianni.CxAOD_VVJJ.513511.MGPy8EG_A14NNPDF23LO_RS_G_ZZ_qqqq_c10_m1500.mc16e_05oct24_CxAOD.root.567522688.567522688
user.angianni.CxAOD_VVJJ.513512.MGPy8EG_A14NNPDF23LO_RS_G_ZZ_qqqq_c10_m1600.mc16a_05oct24_CxAOD.root.567521047.567521047
user.angianni.CxAOD_VVJJ.513512.MGPy8EG_A14NNPDF23LO_RS_G_ZZ_qqqq_c10_m1600.mc16d_05oct24_CxAOD.root.567523596.567523596
user.angianni.CxAOD_VVJJ.513512.MGPy8EG_A14NNPDF23LO_RS_G_ZZ_qqqq_c10_m1600.mc16e_05oct24_CxAOD.root.567524199.567524199
user.angianni.CxAOD_VVJJ.513513.MGPy8EG_A14NNPDF23LO_RS_G_ZZ_qqqq_c10_m1700.mc16a_05oct24_CxAOD.root.567523338.567523338
user.angianni.CxAOD_VVJJ.513513.MGPy8EG_A14NNPDF23LO_RS_G_ZZ_qqqq_c10_m1700.mc16d_05oct24_CxAOD.root.567521360.567521360
user.angianni.CxAOD_VVJJ.513513.MGPy8EG_A14NNPDF23LO_RS_G_ZZ_qqqq_c10_m1700.mc16e_05oct24_CxAOD.root.567522087.567522087
user.angianni.CxAOD_VVJJ.513514.MGPy8EG_A14NNPDF23LO_RS_G_ZZ_qqqq_c10_m1800.mc16a_05oct24_CxAOD.root.567533623.567533623
user.angianni.CxAOD_VVJJ.513514.MGPy8EG_A14NNPDF23LO_RS_G_ZZ_qqqq_c10_m1800.mc16d_05oct24_CxAOD.root.567521519.567521519
user.angianni.CxAOD_VVJJ.513514.MGPy8EG_A14NNPDF23LO_RS_G_ZZ_qqqq_c10_m1800.mc16e_05oct24_CxAOD.root.567536865.567536865
user.angianni.CxAOD_VVJJ.513515.MGPy8EG_A14NNPDF23LO_RS_G_ZZ_qqqq_c10_m1900.mc16a_05oct24_CxAOD.root.567524190.567524190
user.angianni.CxAOD_VVJJ.513515.MGPy8EG_A14NNPDF23LO_RS_G_ZZ_qqqq_c10_m1900.mc16d_05oct24_CxAOD.root.567522069.567522069
user.angianni.CxAOD_VVJJ.513515.MGPy8EG_A14NNPDF23LO_RS_G_ZZ_qqqq_c10_m1900.mc16e_05oct24_CxAOD.root.567531903.567531903
user.angianni.CxAOD_VVJJ.513516.MGPy8EG_A14NNPDF23LO_RS_G_ZZ_qqqq_c10_m2000.mc16a_05oct24_CxAOD.root.567521914.567521914
user.angianni.CxAOD_VVJJ.513516.MGPy8EG_A14NNPDF23LO_RS_G_ZZ_qqqq_c10_m2000.mc16d_05oct24_CxAOD.root.567522596.567522596
user.angianni.CxAOD_VVJJ.513516.MGPy8EG_A14NNPDF23LO_RS_G_ZZ_qqqq_c10_m2000.mc16e_05oct24_CxAOD.root.567522565.567522565
user.angianni.CxAOD_VVJJ.513517.MGPy8EG_A14NNPDF23LO_RS_G_ZZ_qqqq_c10_m2200.mc16a_05oct24_CxAOD.root.567524700.567524700
user.angianni.CxAOD_VVJJ.513517.MGPy8EG_A14NNPDF23LO_RS_G_ZZ_qqqq_c10_m2200.mc16d_05oct24_CxAOD.root.567522327.567522327
user.angianni.CxAOD_VVJJ.513517.MGPy8EG_A14NNPDF23LO_RS_G_ZZ_qqqq_c10_m2200.mc16e_05oct24_CxAOD.root.567521556.567521556
user.angianni.CxAOD_VVJJ.513518.MGPy8EG_A14NNPDF23LO_RS_G_ZZ_qqqq_c10_m2400.mc16a_05oct24_CxAOD.root.567524451.567524451
user.angianni.CxAOD_VVJJ.513518.MGPy8EG_A14NNPDF23LO_RS_G_ZZ_qqqq_c10_m2400.mc16d_05oct24_CxAOD.root.567526361.567526361
user.angianni.CxAOD_VVJJ.513518.MGPy8EG_A14NNPDF23LO_RS_G_ZZ_qqqq_c10_m2400.mc16e_05oct24_CxAOD.root.567523197.567523197
user.angianni.CxAOD_VVJJ.513519.MGPy8EG_A14NNPDF23LO_RS_G_ZZ_qqqq_c10_m2600.mc16a_05oct24_CxAOD.root.567524647.567524647
user.angianni.CxAOD_VVJJ.513519.MGPy8EG_A14NNPDF23LO_RS_G_ZZ_qqqq_c10_m2600.mc16d_05oct24_CxAOD.root.567522786.567522786
user.angianni.CxAOD_VVJJ.513519.MGPy8EG_A14NNPDF23LO_RS_G_ZZ_qqqq_c10_m2600.mc16e_05oct24_CxAOD.root.567523798.567523798
user.angianni.CxAOD_VVJJ.513520.MGPy8EG_A14NNPDF23LO_RS_G_ZZ_qqqq_c10_m2800.mc16a_05oct24_CxAOD.root.567520793.567520793
user.angianni.CxAOD_VVJJ.513520.MGPy8EG_A14NNPDF23LO_RS_G_ZZ_qqqq_c10_m2800.mc16d_05oct24_CxAOD.root.567522789.567522789
user.angianni.CxAOD_VVJJ.513520.MGPy8EG_A14NNPDF23LO_RS_G_ZZ_qqqq_c10_m2800.mc16e_05oct24_CxAOD.root.567521667.567521667
user.angianni.CxAOD_VVJJ.513521.MGPy8EG_A14NNPDF23LO_RS_G_ZZ_qqqq_c10_m3000.mc16a_05oct24_CxAOD.root.567521620.567521620
user.angianni.CxAOD_VVJJ.513521.MGPy8EG_A14NNPDF23LO_RS_G_ZZ_qqqq_c10_m3000.mc16d_05oct24_CxAOD.root.567521343.567521343
user.angianni.CxAOD_VVJJ.513521.MGPy8EG_A14NNPDF23LO_RS_G_ZZ_qqqq_c10_m3000.mc16e_05oct24_CxAOD.root.567524231.567524231
user.angianni.CxAOD_VVJJ.513522.MGPy8EG_A14NNPDF23LO_RS_G_ZZ_qqqq_c10_m3500.mc16a_05oct24_CxAOD.root.567520491.567520491
user.angianni.CxAOD_VVJJ.513522.MGPy8EG_A14NNPDF23LO_RS_G_ZZ_qqqq_c10_m3500.mc16d_05oct24_CxAOD.root.567521041.567521041
user.angianni.CxAOD_VVJJ.513522.MGPy8EG_A14NNPDF23LO_RS_G_ZZ_qqqq_c10_m3500.mc16e_05oct24_CxAOD.root.567524130.567524130
user.angianni.CxAOD_VVJJ.513523.MGPy8EG_A14NNPDF23LO_RS_G_ZZ_qqqq_c10_m4000.mc16a_05oct24_CxAOD.root.567521406.567521406
user.angianni.CxAOD_VVJJ.513523.MGPy8EG_A14NNPDF23LO_RS_G_ZZ_qqqq_c10_m4000.mc16d_05oct24_CxAOD.root.567522122.567522122
user.angianni.CxAOD_VVJJ.513523.MGPy8EG_A14NNPDF23LO_RS_G_ZZ_qqqq_c10_m4000.mc16e_05oct24_CxAOD.root.567523252.567523252
user.angianni.CxAOD_VVJJ.513524.MGPy8EG_A14NNPDF23LO_RS_G_ZZ_qqqq_c10_m4500.mc16a_05oct24_CxAOD.root.567542005.567542005
user.angianni.CxAOD_VVJJ.513524.MGPy8EG_A14NNPDF23LO_RS_G_ZZ_qqqq_c10_m4500.mc16a_05oct24_CxAOD.root.567542103.567542103
user.angianni.CxAOD_VVJJ.513524.MGPy8EG_A14NNPDF23LO_RS_G_ZZ_qqqq_c10_m4500.mc16d_05oct24_CxAOD.root.567522616.567522616
user.angianni.CxAOD_VVJJ.513524.MGPy8EG_A14NNPDF23LO_RS_G_ZZ_qqqq_c10_m4500.mc16e_05oct24_CxAOD.root.567523787.567523787
user.angianni.CxAOD_VVJJ.513525.MGPy8EG_A14NNPDF23LO_RS_G_ZZ_qqqq_c10_m5000.mc16a_05oct24_CxAOD.root.567519969.567519969
user.angianni.CxAOD_VVJJ.513525.MGPy8EG_A14NNPDF23LO_RS_G_ZZ_qqqq_c10_m5000.mc16d_05oct24_CxAOD.root.567523639.567523639
user.angianni.CxAOD_VVJJ.513525.MGPy8EG_A14NNPDF23LO_RS_G_ZZ_qqqq_c10_m5000.mc16e_05oct24_CxAOD.root.567521296.567521296
user.angianni.CxAOD_VVJJ.523069.MGPy8EG_N30NLOA14_EFTAWU_ppqqqq_NPSQeq1_cW_1.mc16a_05oct24_CxAOD.root.567522764.567522764
user.angianni.CxAOD_VVJJ.523069.MGPy8EG_N30NLOA14_EFTAWU_ppqqqq_NPSQeq1_cW_1.mc16d_05oct24_CxAOD.root.567521547.567521547
user.angianni.CxAOD_VVJJ.523069.MGPy8EG_N30NLOA14_EFTAWU_ppqqqq_NPSQeq1_cW_1.mc16d_05oct24_CxAOD.root.567544350.567544350
user.angianni.CxAOD_VVJJ.523069.MGPy8EG_N30NLOA14_EFTAWU_ppqqqq_NPSQeq1_cW_1.mc16e_05oct24_CxAOD.root.567523749.567523749
user.angianni.CxAOD_VVJJ.523069.MGPy8EG_N30NLOA14_EFTAWU_ppqqqq_NPSQeq1_cW_1.mc16e_05oct24_CxAOD.root.567525349.567525349
user.angianni.CxAOD_VVJJ.523070.MGPy8EG_N30NLOA14_EFTAWU_ppqqqq_NPeq1_cW_1.mc16a_05oct24_CxAOD.root.567523931.567523931
user.angianni.CxAOD_VVJJ.523070.MGPy8EG_N30NLOA14_EFTAWU_ppqqqq_NPeq1_cW_1.mc16d_05oct24_CxAOD.root.567520798.567520798
user.angianni.CxAOD_VVJJ.523070.MGPy8EG_N30NLOA14_EFTAWU_ppqqqq_NPeq1_cW_1.mc16d_05oct24_CxAOD.root.567529754.567529754
user.angianni.CxAOD_VVJJ.523070.MGPy8EG_N30NLOA14_EFTAWU_ppqqqq_NPeq1_cW_1.mc16e_05oct24_CxAOD.root.567522373.567522373
user.angianni.CxAOD_VVJJ.523070.MGPy8EG_N30NLOA14_EFTAWU_ppqqqq_NPeq1_cW_1.mc16e_05oct24_CxAOD.root.567540651.567540651
user.angianni.CxAOD_VVJJ.523071.MGPy8EG_N30NLOA14_EFTAWU_ppqqqq_NPeq0_cW_1.mc16a_05oct24_CxAOD.root.567521550.567521550
user.angianni.CxAOD_VVJJ.523071.MGPy8EG_N30NLOA14_EFTAWU_ppqqqq_NPeq0_cW_1.mc16d_05oct24_CxAOD.root.567520953.567520953
user.angianni.CxAOD_VVJJ.523071.MGPy8EG_N30NLOA14_EFTAWU_ppqqqq_NPeq0_cW_1.mc16d_05oct24_CxAOD.root.567537764.567537764
user.angianni.CxAOD_VVJJ.523071.MGPy8EG_N30NLOA14_EFTAWU_ppqqqq_NPeq0_cW_1.mc16e_05oct24_CxAOD.root.567522487.567522487
user.angianni.CxAOD_VVJJ.523071.MGPy8EG_N30NLOA14_EFTAWU_ppqqqq_NPeq0_cW_1.mc16e_05oct24_CxAOD.root.567531832.567531832
