Group,Analysis Folder,Year,Space Used (GB),Number of Files
hbsm,ANA-HDBS-2022-14,2015,1904722793,1148
hbsm,ANA-HDBS-2022-14,2023,1189085843368,11220
hbsm,ANA-HDBS-2022-14,2024,450506875367,116095
hbsm,ANA-HDBS-2022-14,2022,5661993713,3
hbsm,ANA-HDBS-2022-15,2024,5490865065,497
hbsm,ANA-HDBS-2022-15,2023,15771722513,728
hbsm,ANA-HDBS-2023-05,2024,853036416194,2592
hbsm,HpWh_LVL2_tmp,2023,112774172203,154
hbsm,HpWh_LVL2_tmp,2024,2884422991,17
hbsm,bbmumu,2019,24991618900,352
hbsm,hza,2019,49,1
hbsm,hza,2020,754970656116,241
hbsm,run3_atautau,2023,1378480656966,6591
hbsm,run3_atautau,2024,590927,3516
hbsm,zdzd,2023,347711,1005
hbsm,zdzd,2020,31204089538,1319
hbsm,zdzd,2021,8444799606,13825
hbsm,zdzd,2019,10543629195,302
hbsm,zdzd,2022,81979067264,1119
hlrs,2b2mu,2024,2795115055531,484
hlrs,2b2t,2022,483008166961,33820
hlrs,AS_followups,2024,777339270976,9568
hlrs,AS_followups,2023,74957228002,8100
hlrs,AS_followups,2020,289520,10
hlrs,AS_followups,2022,12661713593,1508
hlrs,HZa,2024,862978019900,76387
hlrs,HZa,2022,33745718131,2216
hlrs,HZa,2016,268232565,15
hlrs,HZa,2018,1341173985,75
hlrs,HZa,2023,200083262612,42388
hlrs,HiggsLHE,2020,267878673,3026
hlrs,RECAST,2022,68991425648,53
hlrs,SOLARB,2021,66409786378,240
hlrs,SOLARB,2022,173134803499,21396
hlrs,SOLARB,2020,14197453443,4
hlrs,SOLARB,2023,3426007740348,12379
hlrs,SOLARB,2024,17208711269,191
hlrs,SOLART,2023,136172854039,3238
hlrs,SOLART,2022,93765468356,43
hlrs,ZdZd,2024,8428911,260
hlrs,yyd,2021,173575190815,50003
hlrs,yyd,2022,179202769000,84018
main,www,2024,4675344,34
mbl,AD_JJ,2024,24885591667,22562
mbl,AZH_llbb,2024,1017864,9198
mbl,AZH_vvbb_lltt,2021,4075061971,15
mbl,AZH_vvbb_lltt,2022,4720300650,33
mbl,AZH_vvbb_lltt,2023,13746572868,32
mbl,AZHeavyH,2019,9848635374,670
mbl,AZHeavyH,2020,73951126684,1284
mbl,AZHeavyH,2021,997566359,3
mbl,GenericHeavyHiggs,2023,9673163317,7
mbl,HRC_2020,2023,2631316611,2378
mbl,HRC_2020,2020,244153638,583
mbl,HRC_2020,2022,2584497543,713
mbl,HRC_2020,2021,5008239196,2818
mbl,VBS_Higgs,2024,121486128879,11277
mbl,VHqqbb,2022,2966731,4
mbl,VHqqbb,2020,135826108841,8602
mbl,VHsemileptonic,2021,18298014816,1042
mbl,VHsemileptonic,2020,222776768953,115545
mbl,VHsemileptonic,2024,1694400932,2
mbl,VVsemilep,2020,7957764723,24117
mbl,VVsemilep,2019,201719682,2420
mbl,VVsemilep2nd,2023,12430238,35307
mbl,VVsemilep2nd,2024,235780231931,48075
mbl,VVsemilep2nd,2021,374839036,13767
mbl,VVsemilep2nd,2022,755402,651
mbl,comb_dbx_2017,2019,9192677929,14699
mbl,hh4b,2018,38851042,1
mbl,llqq_vvqq_2017,2019,3012302329,834
mbl,ssWWWZ_run3,2024,1336317331133,5940
mbl,ssWWWZ_run3,2023,2374909398,1279
mbl,vgamma_2019,2019,482086334600,2800
mbl,vgamma_2019,2020,1016499368,7
mbl,vhbb_semilep_2016,2019,16706090441,12
susy-archive,2L0J_ANA-SUSY-2019-02,2021,497612276943,13736
susy-archive,2L0J_ANA-SUSY-2019-02,2020,81899269841,295
susy-archive,2L0J_ANA-SUSY-2019-02,2022,16994780463,7616
susy-archive,2L2J-ANA-SUSY-2018-05,2022,5160737321,738
susy-archive,2L2J-ANA-SUSY-2018-05,2021,317449039223,3678
susy-archive,2L2J-ANA-SUSY-2018-05,2018,3418285056,47
susy-archive,2L2J-ANA-SUSY-2018-05,2019,136118631243,1142
susy-archive,2L2J-ANA-SUSY-2018-05,2020,856330413265,7204
susy-archive,AnalysisChallenge2018,2018,51400914095,39
susy-archive,AnalysisChallenge2019,2019,65229325142,1012
susy-archive,AnalysisChallenge2023,2023,436445115,7
susy-archive,DVMET_ANA-SUSY-2022-15,2022,673584242,2
susy-archive,DVMET_ANA-SUSY-2022-15,2023,493118,18
susy-archive,DVMET_ANA-SUSY-2022-15,2024,5138499765759,15602
susy-archive,DVMu_ANA-SUSY-2024-07,2024,710452010558,8272
susy-archive,DVjets_ANA-SUSY-2018-13,2021,328990982884,1228
susy-archive,DVjets_ANA-SUSY-2018-13,2020,1004029534,59
susy-archive,DVjets_ANA-SUSY-2018-13,2022,2012305011315,61746
susy-archive,DVjets_ANA-SUSY-2018-13,2019,33724648614,36
susy-archive,DVjets_ANA-SUSY-2018-13,2023,30777546,2115
susy-archive,DilepDV_ANA-SUSY-2020-08,2023,21848705252,736
susy-archive,DilepDV_ANA-SUSY-2020-08,2022,819982,4
susy-archive,DilepDV_ANA-SUSY-2020-08,2024,437625732574,5851
susy-archive,DilepDV_ANA-SUSY-2020-08_alt,2024,694517026282,28436
susy-archive,DisplacedDiphoton_ANA-SUSY-2020-28,2022,64662618237,25
susy-archive,DisplacedDiphoton_ANA-SUSY-2020-28,2021,0,1
susy-archive,DisplacedDiphoton_ANA-SUSY-2020-28,2023,4784213239,1
susy-archive,EWK0L_ANA-SUSY-2018-41,2022,16712803702,31
susy-archive,EWK0L_ANA-SUSY-2018-41,2021,179481879927,16467
susy-archive,EWK0L_ANA-SUSY-2018-41,2020,232181703104,1013
susy-archive,EWK0L_ANA-SUSY-2018-41,2019,9151,17
susy-archive,EWK0L_ANA-SUSY-2018-41,2014,337363036,408
susy-archive,EWK0L_ANA-SUSY-2018-41,2024,46562169,1
susy-archive,EWK3L_ANA-SUSY-2018-06,2019,821767234158,1877
susy-archive,EWK3L_ANA-SUSY-2018-06,2020,741722134461,5933
susy-archive,EWK3L_ANA-SUSY-2018-06,2024,21824839687,8
susy-archive,EWK3L_ANA-SUSY-2018-06,2021,93207137067,1451
susy-archive,EWK3L_ANA-SUSY-2018-06,2022,346871153369,764
susy-archive,EWKcombo_ANA-SUSY-2020-05,2022,17492115747,10152
susy-archive,EWKcombo_ANA-SUSY-2020-05,2023,885775997,178
susy-archive,EWKcombo_ANA-SUSY-2020-05,2021,1989969092,1481
susy-archive,EWKcombo_ANA-SUSY-2020-05,2020,341331810,130
susy-archive,EWKcompressed_ANA-SUSY-2020-04,2023,1190469077753,945
susy-archive,EWKcompressed_ANA-SUSY-2020-04,2024,642050004791,115
susy-archive,FakeMET_ANA-SUSY-2023-12,2024,373759554110,19
susy-archive,Highd0Lep_ANA-SUSY-2018-14,2020,1193225470191,59380
susy-archive,Highd0Lep_ANA-SUSY-2018-14,2024,154955171840,55
susy-archive,Highd0Lep_ANA-SUSY-2018-14,2021,998438,11
susy-archive,Highd0Lep_ANA-SUSY-2018-14,2023,4371,1
susy-archive,Highd0Lep_ANA-SUSY-2018-14,2019,79000578664,819
susy-archive,Intermediated0Lep_ANA-SUSY-2020-09,2021,55257450506,671
susy-archive,Intermediated0Lep_ANA-SUSY-2020-09,2020,7498484246,445
susy-archive,Intermediated0Lep_ANA-SUSY-2020-09,2023,12963820,4
susy-archive,MCProd_www,2024,1253768,19
susy-archive,NPP_ANA-SUSY-2019-14,2022,339028123,4
susy-archive,NPP_ANA-SUSY-2019-14,2020,8998251981,1206
susy-archive,NTUP_SUSY,2014,1233678932,1
susy-archive,RPV_mutlijets_ANA-SUSY-2019-24,2024,58248806735,99
susy-archive,RPV_mutlijets_ANA-SUSY-2019-24,2020,205200943222,2173
susy-archive,RPV_mutlijets_ANA-SUSY-2019-24,2022,799162812857,26230
susy-archive,RPV_mutlijets_ANA-SUSY-2019-24,2023,2998777106284,26367
susy-archive,RPV_mutlijets_ANA-SUSY-2019-24,2021,141652000481,2403
susy-archive,RTT,2014,5200134500,2
susy-archive,RTT,2011,0,1
susy-archive,SS3L_ANA-SUSY-2018-09,2019,11158965,29
susy-archive,SS3L_ANA-SUSY-2018-09,2020,58329273,16
susy-archive,SS3L_ANA-SUSY-2019-22,2022,965777672336,3597
susy-archive,SS3L_ANA-SUSY-2019-22,2021,345322331434,9650
susy-archive,SS3L_ANA-SUSY-2019-22,2020,511068782561,4268
susy-archive,SS3L_ANA-SUSY-2019-22,2023,366539459,100
susy-archive,SUSYGRIDS,2014,83869632161,3996
susy-archive,SUSYGRIDS,2017,1447267193,86
susy-archive,SUSYGRIDS,2015,1140116332,61
susy-archive,SUSYGRIDS,2012,4324,5
susy-archive,SUSYGRIDS,2018,162752384,5
susy-archive,SUSYGRIDS,2013,48975409,3
susy-archive,SUSYGRIDS,2011,0,10
susy-archive,SUSYVsCentreOfMassEnergy,2014,94374,18
susy-archive,Stopped_ANA-SUSY-2018-15,2019,39668659184,6270
susy-archive,Stopped_ANA-SUSY-2018-15,2020,271334277383,3803
susy-archive,Stopped_ANA-SUSY-2018-15,2021,861000,53
susy-archive,Strong3LSS_ANA-SUSY-2020-27,2023,107946720786,4363
susy-archive,Strong3LSS_ANA-SUSY-2020-27,2022,1689845307024,8071
susy-archive,Strong3LSS_ANA-SUSY-2020-27,2024,16220063931,25441
susy-archive,Strong3LSS_ANA-SUSY-2020-27,2021,370988388041,3765
susy-archive,backgroundForum,2017,59002240618,115
susy-archive,bbMET_ANA-SUSY-2018-34,2021,216952075736,124
susy-archive,bbMET_ANA-SUSY-2018-34,2020,264932768427,3088
susy-archive,bbMET_ANA-SUSY-2018-34,2019,8954233,14
susy-archive,bbMET_ANA-SUSY-2018-34,2018,13032725,3
susy-archive,cdm,2022,4304570003,478
susy-archive,cdm,2023,186420461,6
susy-archive,cdm,2020,3716082729,8355
susy-archive,cdm,2021,181960021,119
susy-archive,displacedleptonsRun3_ANA-SUSY-2022-11,2023,520109641115,5967
susy-archive,displacedleptonsRun3_ANA-SUSY-2022-11,2024,1699258629403,32127
susy-archive,displacedleptonsRun3_ANA-SUSY-2022-11,2022,308364090170,50645
susy-archive,ewk2L3L,2016,25312962955,448
susy-archive,ewk2L3L,2017,306844749,8
susy-archive,ewk_compressed_ANA-SUSY-2020-04,2023,0,2
susy-archive,histfitter,2014,208016752810,135
susy-archive,histfitter,2015,4483668902,4
susy-archive,histfitter,2017,390440240,1
susy-archive,histfitter,2018,226844392,1
susy-archive,sbMultib_ANA-SUSY-2018-31,2018,268221955425,2131
susy-archive,sbMultib_ANA-SUSY-2018-31,2019,219609207243,9584
susy-archive,stop2L,2020,64820814736,824
susy-archive,stop2L,2019,1503352400,3
susy-archive,stop2L,2022,98095481110,151
susy-archive,stop2L,2023,1401026178,524
susy-archive,stop2L,2024,83787122942,53
susy-archive,stop2L,2021,719424696608,4456
susy-archive,strong2L,2017,2973209,1
susy-archive,tcMET_ANA-SUSY-2019-23,2022,1421808593357,42141
susy-archive,tcMET_ANA-SUSY-2019-23,2024,805147241490,115
susy-archive,tcMET_ANA-SUSY-2019-23,2020,4343517,81
susy-archive,tcMET_ANA-SUSY-2019-23,2023,398839280726,1204
susy-archive,tcMET_ANA-SUSY-2019-23,2021,10586285150,2226
susy-archive,tt0L_ANA-SUSY-2018-12,2019,130335831364,11519
susy-archive,tt0L_ANA-SUSY-2018-12,2020,1392687261,303
susy-archive,tt0L_for_RECAST,2023,2127027404,3
susy-archive,tt1L_ANA-SUSY-2018-07,2021,167279189,597
susy-archive,tt1L_ANA-SUSY-2018-07,2019,98639126861,677
susy-archive,ttDM_ANA-SUSY-2019-12,2021,65958413534,670
susy-archive,ttDM_ANA-SUSY-2019-12,2020,11285039020,564
susy-archive,ttDM_ANA-SUSY-2019-12,2024,10363299840,1
susy-archive,ttMET_ANA-SUSY-2020-25,2021,13752836305,15
susy-archive,ttMET_ANA-SUSY-2020-25,2023,848994994603,28689
susy-ewk,DirectStau,2020,58757364587,1557
susy-ewk,DirectStau,2021,668421544937,5343
susy-ewk,DirectStau,2024,73300729595,151
susy-ewk,DirectStau,2023,14086697422,124
susy-ewk,DirectStau,2022,4040,1
susy-ewk,DisapTrack2nd_ANA-SUSY-2020-32,2022,11275663811,361
susy-ewk,DisapTrack2nd_ANA-SUSY-2020-32,2021,10363754649,43
susy-ewk,DisapTrack2nd_ANA-SUSY-2020-32,2023,74981078936,9153
susy-ewk,DisapTrack2nd_ANA-SUSY-2020-32,2024,94797602636,38
susy-ewk,EWK1L2L_ANA-SUSY-2024-05,2024,71177483537,1812
susy-ewk,EWK2L3L_ANA-SUSY-2024-02,2024,1006390295675,46
susy-ewk,EWKDisplacedTrack_SUSY-2024-06,2024,3447297975870,334
susy-ewk,pixel_dedx,2023,1196763493698,89121
susy-ewk,pixel_dedx,2022,273884284733,9020
susy-ewk,pixel_dedx,2024,772861695565,25197
susy-ewk,pixel_dedx,2017,85832410670,3642
susy-ewk,pixel_dedx,2018,87936,4
susy-ewk,pixel_dedx,2016,23419130554,3
susy-ewk,pixel_dedx,2020,44448778677,31
susy-ewk,pixel_dedx,2021,95200957158,2172
susy-ewk,pixel_dedx,2019,80593917916,3474
susy-strong,StealthPhotons_ANA-SUSY-2022-20,2024,7952475357,709
susy-strong,ccMET_ANA-SUSY-2018-25,2023,1136630119934,27494
susy-strong,ccMET_ANA-SUSY-2018-25,2022,145625385150,4796
susy-strong,ccMET_ANA-SUSY-2018-25,2024,516746001,18
susy-strong,stop_ANA-SUSY-2023-08,2024,5497760483694,92472
susy-strong,stop_ANA-SUSY-2023-08,2023,1339876,4
susy-strong,tauX_ANA-SUSY-2018-40,2019,17230149005,36
susy-strong,tauX_ANA-SUSY-2018-40,2020,32030012717,234
susy-strong,tbMET_ANA-SUSY-2022-07,2024,551740696044,1134
