Group,Analysis Folder,Year,Space Used (GB),Number of Files
dbl,AD_JJ,2024,2523912,22536
dbl,AZH_vvbb_lltt,2021,4075061971,15
dbl,AZH_vvbb_lltt,2022,4720300650,33
dbl,AZH_vvbb_lltt,2023,13746572868,32
dbl,AZHeavyH,2019,9848635374,670
dbl,AZHeavyH,2020,73951126684,1284
dbl,AZHeavyH,2021,997566359,3
dbl,GenericHeavyHiggs,2023,9673163317,7
dbl,HRC_2020,2023,2631316611,2378
dbl,HRC_2020,2020,244153638,583
dbl,HRC_2020,2022,2584497543,713
dbl,HRC_2020,2021,5008239196,2818
dbl,VBS_Higgs,2024,121479419979,9883
dbl,VHqqbb,2022,2966731,4
dbl,VHqqbb,2020,135826108841,8602
dbl,VHsemileptonic,2021,18298014816,1042
dbl,VHsemileptonic,2020,222776768953,115545
dbl,VHsemileptonic,2024,1694400932,2
dbl,VVsemilep,2020,7957764723,24117
dbl,VVsemilep,2019,201719682,2420
dbl,VVsemilep2nd,2023,12430238,35307
dbl,VVsemilep2nd,2024,187301638015,47801
dbl,VVsemilep2nd,2021,374839036,13767
dbl,VVsemilep2nd,2022,755402,651
dbl,comb_dbx_2017,2019,9192677929,14699
dbl,hh4b,2018,38851042,1
dbl,llqq_vvqq_2017,2019,3012302329,834
dbl,ssWWWZ_run3,2024,1328900473801,5923
dbl,ssWWWZ_run3,2023,2374909398,1279
dbl,vgamma_2019,2019,482086334600,2800
dbl,vgamma_2019,2020,1016499368,7
dbl,vhbb_semilep_2016,2019,16706090441,12
diHiggs,Run2_rel22,2023,22316175769,68
diHiggs,Run2_rel22,2024,2663546791,2
diHiggs,Run3/bbbb,2024,1512281941182,42746
diHiggs,Run3/bbll,2024,1102220945654,2287
diHiggs,Run3/yybb,2024,1815151301006,303400
diHiggs,Run3/yybb,2023,52487859192,80
diHiggs,bbVV,2023,548574046,12265
diHiggs,bbVV,2021,2598406,23096
diHiggs,bbVV,2020,861778,8054
diHiggs,bbVV,2022,258093,2514
diHiggs,bbbb,2019,103227173225,16
diHiggs,bbbb,2020,129470690034,82
diHiggs,bbll,2021,152034357,1151
diHiggs,bbll,2022,9945334600,1407
diHiggs,bbll,2020,29168,4
diHiggs,bbtautau,2019,428139363821,28845
diHiggs,bbtautau,2022,145945841498,19267
diHiggs,bbtautau,2023,93236933733,2503
diHiggs,bbtautau,2021,3928989313,36765
diHiggs,bbtautau,2024,8127430,16
diHiggs,bbtautau,2020,298002862317,76788
diHiggs,combination,2019,6246817242,31026
diHiggs,combination,2020,151990303932,129761
diHiggs,combination,2023,1947596363,78730
diHiggs,combination,2022,37514114069,14940
diHiggs,combination,2024,3203590582,20953
diHiggs,combination,2021,60460296571,4278
diHiggs,multilepton,2021,277743486959,65140
diHiggs,multilepton,2023,749496560006,16060
diHiggs,multilepton,2024,43401385178,682
diHiggs,multilepton,2020,170581868,177
diHiggs,multilepton,2022,5454044854,203
diHiggs,multilepton,2019,742,2
diHiggs,ttHH,2024,2555466299838,9107
diHiggs,yybb,2019,40033777,133
diHiggs,yybb,2020,2343625934,27
diHiggs,yybb,2023,160023996519,1426
diHiggs,yybb,2024,444671032002,94
hbsm,ANA-HDBS-2022-14,2015,1904722793,1148
hbsm,ANA-HDBS-2022-14,2023,1189085843368,11220
hbsm,ANA-HDBS-2022-14,2024,450506875367,116095
hbsm,ANA-HDBS-2022-14,2022,5661993713,3
hbsm,ANA-HDBS-2022-15,2024,4329674580,472
hbsm,ANA-HDBS-2022-15,2023,15771722513,728
hbsm,ANA-HDBS-2023-05,2024,674830766377,2295
hbsm,HpWh_LVL2_tmp,2023,112774172203,154
hbsm,HpWh_LVL2_tmp,2024,2884422991,17
hbsm,bbmumu,2019,24991618900,352
hbsm,hza,2019,49,1
hbsm,hza,2020,754970656116,241
hbsm,run3_atautau,2023,1378480656966,6591
hbsm,run3_atautau,2024,512681,3511
hbsm,zdzd,2023,347711,1005
hbsm,zdzd,2020,31204089538,1319
hbsm,zdzd,2021,8444799606,13825
hbsm,zdzd,2019,10543629195,302
hbsm,zdzd,2022,81979067264,1119
hlrs,2b2mu,2024,2786825857356,473
hlrs,2b2t,2022,483008166961,33820
hlrs,AS_followups,2024,782523056099,9450
hlrs,AS_followups,2023,74957228002,8100
hlrs,AS_followups,2020,289520,10
hlrs,AS_followups,2022,12661713593,1508
hlrs,HZa,2024,862978019900,76387
hlrs,HZa,2022,33745718131,2216
hlrs,HZa,2016,268232565,15
hlrs,HZa,2018,1341173985,75
hlrs,HZa,2023,200083262612,42388
hlrs,HiggsLHE,2020,267878673,3026
hlrs,RECAST,2022,68991425648,53
hlrs,SOLARB,2021,66409786378,240
hlrs,SOLARB,2022,173134803499,21396
hlrs,SOLARB,2020,14197453443,4
hlrs,SOLARB,2023,3426007740348,12379
hlrs,SOLARB,2024,10050345005,78
hlrs,SOLART,2023,136172854039,3238
hlrs,SOLART,2022,93765468356,43
hlrs,ZdZd,2024,8428911,260
hlrs,yyd,2021,173575190815,50003
hlrs,yyd,2022,179202769000,84018
