Group,Analysis Folder,Year,Space Used (GB)
dbl,AZH_vvbb_lltt,2021,4075061971
dbl,AZH_vvbb_lltt,2022,4720300650
dbl,AZH_vvbb_lltt,2023,13746572868
dbl,AZHeavyH,2019,9848635374
dbl,AZHeavyH,2020,73951126684
dbl,AZHeavyH,2021,997566359
dbl,GenericHeavyHiggs,2023,9673163317
dbl,HRC_2020,2023,2631316611
dbl,HRC_2020,2020,244153638
dbl,HRC_2020,2022,2584497543
dbl,HRC_2020,2021,5008239196
dbl,VHqqbb,2022,2966731
dbl,VHqqbb,2020,135826108841
dbl,VHsemileptonic,2021,18298014816
dbl,VHsemileptonic,2020,224466277087
dbl,VVsemilep,2020,7957764723
dbl,VVsemilep,2019,201719682
dbl,VVsemilep2nd,2023,23747109
dbl,VVsemilep2nd,2024,2580680
dbl,VVsemilep2nd,2021,376338069
dbl,VVsemilep2nd,2022,4020914
dbl,YXH,2023,426296529865
dbl,YXH,2021,957055
dbl,YXH,2022,4151973230376
dbl,comb_dbx_2017,2019,9192677929
dbl,hh4b,2018,38851042
dbl,llqq_vvqq_2017,2019,3012302329
dbl,ssWWWZ_run3,2023,2374909398
dbl,ssWWWZ_run3,2024,181438697
dbl,vgamma_2019,2019,482086334600
dbl,vgamma_2019,2020,1016499368
dbl,vhbb_semilep_2016,2019,16706090441
diHiggs,Run2_rel22,2023,22316175769
diHiggs,Run3,2023,197391582214
diHiggs,Run3,2024,2138971447
diHiggs,bbVV,2023,548574046
diHiggs,bbVV,2021,2598406
diHiggs,bbVV,2020,861778
diHiggs,bbVV,2022,258093
diHiggs,bbbb,2019,103227173225
diHiggs,bbbb,2020,129470690034
diHiggs,bbll,2021,152034357
diHiggs,bbll,2022,9945334600
diHiggs,bbll,2020,29168
diHiggs,bbtautau,2019,428139363821
diHiggs,bbtautau,2022,145945841498
diHiggs,bbtautau,2023,93236933733
diHiggs,bbtautau,2021,3928990549
diHiggs,bbtautau,2020,298002862317
diHiggs,combination,2019,6246817242
diHiggs,combination,2020,151990303932
diHiggs,combination,2023,1948173267
diHiggs,combination,2022,37450469595
diHiggs,combination,2021,60460296571
diHiggs,combination,2024,6895025
diHiggs,multilepton,2021,277743486959
diHiggs,multilepton,2023,757953284491
diHiggs,multilepton,2020,170581868
diHiggs,multilepton,2022,5454044854
diHiggs,multilepton,2019,4978796034
diHiggs,multilepton,2024,129063
diHiggs,ttHH,2023,73120027176
diHiggs,ttHH,2024,23262469629
diHiggs,yybb,2019,40033777
diHiggs,yybb,2020,2343625934
diHiggs,yybb,2023,317717645598
diHiggs,yybb,2024,143355833932
hbsm,ANA-HDBS-2022-14,2015,1904722793
hbsm,ANA-HDBS-2022-14,2023,1192795174684
hbsm,ANA-HDBS-2022-14,2024,14178713405
hbsm,ANA-HDBS-2022-14,2022,5661993713
hbsm,ANA-HDBS-2022-15,2023,21119758851
hbsm,ANA-HDBS-2022-15,2024,98113463
hbsm,HpWh_LVL2_tmp,2023,112774172203
hbsm,bbmumu,2019,24991618900
hbsm,hza,2019,49
hbsm,hza,2020,754970656116
hbsm,run3_atautau,2023,1378480656966
hbsm,run3_atautau,2024,342554
hbsm,zdzd,2023,347711
hbsm,zdzd,2020,31204089538
hbsm,zdzd,2021,8444799606
hbsm,zdzd,2019,10543629195
hbsm,zdzd,2022,81979067264
hlrs,2b2t,2022,483008166961
hlrs,AS_followups,2024,529824515650
hlrs,AS_followups,2023,445418520539
hlrs,AS_followups,2020,347424
hlrs,AS_followups,2022,12661713593
hlrs,HZa,2022,33745718131
hlrs,HZa,2016,268232565
hlrs,HZa,2018,1341173985
hlrs,HZa,2023,200083265328
hlrs,HiggsLHE,2020,267878673
hlrs,RECAST,2022,68991425648
hlrs,SOLARB,2021,66409786378
hlrs,SOLARB,2022,173134803499
hlrs,SOLARB,2020,21767149507
hlrs,SOLARB,2023,3433972997088
hlrs,SOLART,2023,136172854039
hlrs,SOLART,2022,93765468356
hlrs,yyd,2021,173575190815
hlrs,yyd,2022,179202769000
